%YAML 1.1
%TAG !u! tag:unity3d.com,2011:
--- !u!1 &100272
GameObject:
  m_ObjectHideFlags: 0
  m_CorrespondingSourceObject: {fileID: 0}
  m_PrefabInstance: {fileID: 0}
  m_PrefabAsset: {fileID: 0}
  serializedVersion: 6
  m_Component:
  - component: {fileID: 497430}
  m_Layer: 0
  m_Name: VBOT_:Spine
  m_TagString: Untagged
  m_Icon: {fileID: 0}
  m_NavMeshLayer: 0
  m_StaticEditorFlags: 0
  m_IsActive: 1
--- !u!4 &497430
Transform:
  m_ObjectHideFlags: 0
  m_CorrespondingSourceObject: {fileID: 0}
  m_PrefabInstance: {fileID: 0}
  m_PrefabAsset: {fileID: 0}
  m_GameObject: {fileID: 100272}
  m_LocalRotation: {x: -0.007850627, y: -0.0000005901344, z: 0.000014438815, w: 0.9999692}
  m_LocalPosition: {x: -1.6871125e-10, y: 9.702705, z: -0.15236208}
  m_LocalScale: {x: 1, y: 1.0000002, z: 1.0000002}
  m_Children:
  - {fileID: 404340}
  m_Father: {fileID: 458192}
  m_RootOrder: 2
  m_LocalEulerAnglesHint: {x: 0, y: 0, z: 0}
--- !u!1 &100986
GameObject:
  m_ObjectHideFlags: 0
  m_CorrespondingSourceObject: {fileID: 0}
  m_PrefabInstance: {fileID: 0}
  m_PrefabAsset: {fileID: 0}
  serializedVersion: 6
  m_Component:
  - component: {fileID: 457436}
  - component: {fileID: 13713688}
  m_Layer: 0
  m_Name: VBOT_:VBOT_LOD3
  m_TagString: Untagged
  m_Icon: {fileID: 0}
  m_NavMeshLayer: 0
  m_StaticEditorFlags: 0
  m_IsActive: 1
--- !u!4 &457436
Transform:
  m_ObjectHideFlags: 0
  m_CorrespondingSourceObject: {fileID: 0}
  m_PrefabInstance: {fileID: 0}
  m_PrefabAsset: {fileID: 0}
  m_GameObject: {fileID: 100986}
  m_LocalRotation: {x: 0.00000008122751, y: -0.0000000018335409, z: 1.1508664e-24,
    w: 1}
  m_LocalPosition: {x: 0, y: 0, z: 0}
  m_LocalScale: {x: 0.01, y: 0.009999999, z: 0.01}
  m_Children: []
  m_Father: {fileID: 458354}
  m_RootOrder: 3
  m_LocalEulerAnglesHint: {x: 0, y: 0, z: 0}
--- !u!137 &13713688
SkinnedMeshRenderer:
  m_ObjectHideFlags: 0
  m_CorrespondingSourceObject: {fileID: 0}
  m_PrefabInstance: {fileID: 0}
  m_PrefabAsset: {fileID: 0}
  m_GameObject: {fileID: 100986}
  m_Enabled: 1
  m_CastShadows: 1
  m_ReceiveShadows: 1
  m_DynamicOccludee: 1
  m_MotionVectors: 1
  m_LightProbeUsage: 1
  m_ReflectionProbeUsage: 1
  m_RenderingLayerMask: 1
  m_RendererPriority: 0
  m_Materials:
  - {fileID: 2100000, guid: 2fccb76f588d4d749928713d38489484, type: 2}
  - {fileID: 2100000, guid: df6e3b8b89f6ab04086bb67157f8e06e, type: 2}
  - {fileID: 2100000, guid: c90f59755f1461b4483f9f225b77813c, type: 2}
  - {fileID: 2100000, guid: 4a9aabb04c2af0e42a67b624135c49e7, type: 2}
  - {fileID: 2100000, guid: f51c03443b297bb4a85e94d7738c2bb9, type: 2}
  - {fileID: 2100000, guid: a5e11a5a8f5eb46449d5ace6a06e4d54, type: 2}
  - {fileID: 2100000, guid: 33c350b6cd6102647be9afdfaec5b563, type: 2}
  m_StaticBatchInfo:
    firstSubMesh: 0
    subMeshCount: 0
  m_StaticBatchRoot: {fileID: 0}
  m_ProbeAnchor: {fileID: 0}
  m_LightProbeVolumeOverride: {fileID: 0}
  m_ScaleInLightmap: 1
  m_PreserveUVs: 0
  m_IgnoreNormalsForChartDetection: 0
  m_ImportantGI: 0
  m_StitchLightmapSeams: 0
  m_SelectedEditorRenderState: 3
  m_MinimumChartSize: 4
  m_AutoUVMaxDistance: 0.5
  m_AutoUVMaxAngle: 89
  m_LightmapParameters: {fileID: 0}
  m_SortingLayerID: 0
  m_SortingLayer: 0
  m_SortingOrder: 0
  serializedVersion: 2
  m_Quality: 0
  m_UpdateWhenOffscreen: 0
  m_SkinnedMotionVectors: 1
  m_Mesh: {fileID: 4300000, guid: 340f99b8334a14c4a8a01dce6e1e5348, type: 3}
  m_Bones:
  - {fileID: 458192}
  - {fileID: 497430}
  - {fileID: 404340}
  - {fileID: 404408}
  - {fileID: 480034}
  - {fileID: 443502}
  - {fileID: 453176}
  - {fileID: 445294}
  - {fileID: 402386}
  - {fileID: 430694}
  - {fileID: 443944}
  - {fileID: 419186}
  - {fileID: 437342}
  - {fileID: 432302}
  - {fileID: 435832}
  - {fileID: 423342}
  - {fileID: 418808}
  - {fileID: 412180}
  - {fileID: 407454}
  - {fileID: 476544}
  - {fileID: 489164}
  - {fileID: 448698}
  - {fileID: 471958}
  - {fileID: 475332}
  - {fileID: 453074}
  - {fileID: 473768}
  - {fileID: 459428}
  - {fileID: 410072}
  - {fileID: 434540}
  - {fileID: 482446}
  - {fileID: 465784}
  - {fileID: 456678}
  - {fileID: 426282}
  - {fileID: 405084}
  - {fileID: 440192}
  - {fileID: 484674}
  - {fileID: 462714}
  - {fileID: 458272}
  - {fileID: 432512}
  - {fileID: 463416}
  - {fileID: 494144}
  - {fileID: 418374}
  - {fileID: 483756}
  - {fileID: 407132}
  - {fileID: 474282}
  - {fileID: 468218}
  - {fileID: 441240}
  - {fileID: 450896}
  - {fileID: 495558}
  - {fileID: 445622}
  - {fileID: 422112}
  - {fileID: 483450}
  - {fileID: 428214}
  - {fileID: 441212}
  - {fileID: 474624}
  - {fileID: 438746}
  - {fileID: 486260}
  - {fileID: 466264}
  - {fileID: 414652}
  - {fileID: 496616}
  - {fileID: 400738}
  - {fileID: 416608}
  - {fileID: 444884}
  - {fileID: 414890}
  - {fileID: 408318}
  m_BlendShapeWeights: []
  m_RootBone: {fileID: 458192}
  m_AABB:
    m_Center: {x: 0.008682251, y: -20.565422, z: 5.931921}
    m_Extent: {x: 98.9809, y: 96.17707, z: 28.504267}
  m_DirtyAABB: 0
--- !u!1 &102920
GameObject:
  m_ObjectHideFlags: 0
  m_CorrespondingSourceObject: {fileID: 0}
  m_PrefabInstance: {fileID: 0}
  m_PrefabAsset: {fileID: 0}
  serializedVersion: 6
  m_Component:
  - component: {fileID: 435832}
  m_Layer: 0
  m_Name: VBOT_:LeftHandThumb4
  m_TagString: Untagged
  m_Icon: {fileID: 0}
  m_NavMeshLayer: 0
  m_StaticEditorFlags: 0
  m_IsActive: 1
--- !u!4 &435832
Transform:
  m_ObjectHideFlags: 0
  m_CorrespondingSourceObject: {fileID: 0}
  m_PrefabInstance: {fileID: 0}
  m_PrefabAsset: {fileID: 0}
  m_GameObject: {fileID: 102920}
  m_LocalRotation: {x: 0.000000011175872, y: 0.000000011175872, z: 0.000000056810677,
    w: 1}
  m_LocalPosition: {x: 0.12360834, y: 3.4833553, z: -0.0000096559515}
  m_LocalScale: {x: 1, y: 1, z: 0.99999994}
  m_Children:
  - {fileID: 444388}
  m_Father: {fileID: 432302}
  m_RootOrder: 0
  m_LocalEulerAnglesHint: {x: 0, y: 0, z: 0}
--- !u!1 &103908
GameObject:
  m_ObjectHideFlags: 0
  m_CorrespondingSourceObject: {fileID: 0}
  m_PrefabInstance: {fileID: 0}
  m_PrefabAsset: {fileID: 0}
  serializedVersion: 6
  m_Component:
  - component: {fileID: 418808}
  m_Layer: 0
  m_Name: VBOT_:LeftHandIndex2
  m_TagString: Untagged
  m_Icon: {fileID: 0}
  m_NavMeshLayer: 0
  m_StaticEditorFlags: 0
  m_IsActive: 1
--- !u!4 &418808
Transform:
  m_ObjectHideFlags: 0
  m_CorrespondingSourceObject: {fileID: 0}
  m_PrefabInstance: {fileID: 0}
  m_PrefabAsset: {fileID: 0}
  m_GameObject: {fileID: 103908}
  m_LocalRotation: {x: 0.00000022857085, y: 0.000003505723, z: 0.0004560625, w: 0.99999994}
  m_LocalPosition: {x: -0.0022915674, y: 3.742948, z: -0.0000026019695}
  m_LocalScale: {x: 0.99999994, y: 0.99999964, z: 1.0000001}
  m_Children:
  - {fileID: 412180}
  m_Father: {fileID: 423342}
  m_RootOrder: 0
  m_LocalEulerAnglesHint: {x: 0, y: 0, z: 0}
--- !u!1 &104746
GameObject:
  m_ObjectHideFlags: 0
  m_CorrespondingSourceObject: {fileID: 0}
  m_PrefabInstance: {fileID: 0}
  m_PrefabAsset: {fileID: 0}
  serializedVersion: 6
  m_Component:
  - component: {fileID: 423342}
  m_Layer: 0
  m_Name: VBOT_:LeftHandIndex1
  m_TagString: Untagged
  m_Icon: {fileID: 0}
  m_NavMeshLayer: 0
  m_StaticEditorFlags: 0
  m_IsActive: 1
--- !u!4 &423342
Transform:
  m_ObjectHideFlags: 0
  m_CorrespondingSourceObject: {fileID: 0}
  m_PrefabInstance: {fileID: 0}
  m_PrefabAsset: {fileID: 0}
  m_GameObject: {fileID: 104746}
  m_LocalRotation: {x: -0.00057633274, y: -0.00008826893, z: -0.057947285, w: 0.9983195}
  m_LocalPosition: {x: 3.306355, y: 10.214577, z: 0.16185996}
  m_LocalScale: {x: 0.9999994, y: 1.0000005, z: 0.99999946}
  m_Children:
  - {fileID: 418808}
  m_Father: {fileID: 443944}
  m_RootOrder: 0
  m_LocalEulerAnglesHint: {x: 0, y: 0, z: 0}
--- !u!1 &105370
GameObject:
  m_ObjectHideFlags: 0
  m_CorrespondingSourceObject: {fileID: 0}
  m_PrefabInstance: {fileID: 0}
  m_PrefabAsset: {fileID: 0}
  serializedVersion: 6
  m_Component:
  - component: {fileID: 452182}
  m_Layer: 0
  m_Name: VBOT_:LeftToe_End_end
  m_TagString: Untagged
  m_Icon: {fileID: 0}
  m_NavMeshLayer: 0
  m_StaticEditorFlags: 0
  m_IsActive: 1
--- !u!4 &452182
Transform:
  m_ObjectHideFlags: 0
  m_CorrespondingSourceObject: {fileID: 0}
  m_PrefabInstance: {fileID: 0}
  m_PrefabAsset: {fileID: 0}
  m_GameObject: {fileID: 105370}
  m_LocalRotation: {x: 0, y: 0, z: 0, w: 1}
  m_LocalPosition: {x: -0, y: 6.20849, z: 0}
  m_LocalScale: {x: 1, y: 1, z: 1}
  m_Children: []
  m_Father: {fileID: 496616}
  m_RootOrder: 0
  m_LocalEulerAnglesHint: {x: 0, y: 0, z: 0}
--- !u!1 &105564
GameObject:
  m_ObjectHideFlags: 0
  m_CorrespondingSourceObject: {fileID: 0}
  m_PrefabInstance: {fileID: 0}
  m_PrefabAsset: {fileID: 0}
  serializedVersion: 6
  m_Component:
  - component: {fileID: 450756}
  m_Layer: 0
  m_Name: VBOT_:RightHandMiddle4_end
  m_TagString: Untagged
  m_Icon: {fileID: 0}
  m_NavMeshLayer: 0
  m_StaticEditorFlags: 0
  m_IsActive: 1
--- !u!4 &450756
Transform:
  m_ObjectHideFlags: 0
  m_CorrespondingSourceObject: {fileID: 0}
  m_PrefabInstance: {fileID: 0}
  m_PrefabAsset: {fileID: 0}
  m_GameObject: {fileID: 105564}
  m_LocalRotation: {x: 0, y: 0, z: 0, w: 1}
  m_LocalPosition: {x: -0, y: 3.6506531, z: 0}
  m_LocalScale: {x: 1, y: 1, z: 1}
  m_Children: []
  m_Father: {fileID: 441240}
  m_RootOrder: 0
  m_LocalEulerAnglesHint: {x: 0, y: 0, z: 0}
--- !u!1 &107048
GameObject:
  m_ObjectHideFlags: 0
  m_CorrespondingSourceObject: {fileID: 0}
  m_PrefabInstance: {fileID: 0}
  m_PrefabAsset: {fileID: 0}
  serializedVersion: 6
  m_Component:
  - component: {fileID: 483450}
  m_Layer: 0
  m_Name: VBOT_:RightHandPinky1
  m_TagString: Untagged
  m_Icon: {fileID: 0}
  m_NavMeshLayer: 0
  m_StaticEditorFlags: 0
  m_IsActive: 1
--- !u!4 &483450
Transform:
  m_ObjectHideFlags: 0
  m_CorrespondingSourceObject: {fileID: 0}
  m_PrefabInstance: {fileID: 0}
  m_PrefabAsset: {fileID: 0}
  m_GameObject: {fileID: 107048}
  m_LocalRotation: {x: -0.0067263856, y: 0.007935547, z: 0.052596204, w: 0.9985617}
  m_LocalPosition: {x: 3.229885, y: 8.635466, z: 0.26456282}
  m_LocalScale: {x: 0.999999, y: 0.99999946, z: 1.0000002}
  m_Children:
  - {fileID: 428214}
  m_Father: {fileID: 440192}
  m_RootOrder: 2
  m_LocalEulerAnglesHint: {x: 0, y: 0, z: 0}
--- !u!1 &108502
GameObject:
  m_ObjectHideFlags: 0
  m_CorrespondingSourceObject: {fileID: 0}
  m_PrefabInstance: {fileID: 0}
  m_PrefabAsset: {fileID: 0}
  serializedVersion: 6
  m_Component:
  - component: {fileID: 489164}
  m_Layer: 0
  m_Name: VBOT_:LeftHandMiddle2
  m_TagString: Untagged
  m_Icon: {fileID: 0}
  m_NavMeshLayer: 0
  m_StaticEditorFlags: 0
  m_IsActive: 1
--- !u!4 &489164
Transform:
  m_ObjectHideFlags: 0
  m_CorrespondingSourceObject: {fileID: 0}
  m_PrefabInstance: {fileID: 0}
  m_PrefabAsset: {fileID: 0}
  m_GameObject: {fileID: 108502}
  m_LocalRotation: {x: 0.00000047429356, y: -0.0000044267067, z: -0.00016212398, w: 1}
  m_LocalPosition: {x: -0.00060562877, y: 4.0604153, z: 0.000001076325}
  m_LocalScale: {x: 1, y: 0.9999993, z: 1.0000004}
  m_Children:
  - {fileID: 448698}
  m_Father: {fileID: 476544}
  m_RootOrder: 0
  m_LocalEulerAnglesHint: {x: 0, y: 0, z: 0}
--- !u!1 &108592
GameObject:
  m_ObjectHideFlags: 0
  m_CorrespondingSourceObject: {fileID: 0}
  m_PrefabInstance: {fileID: 0}
  m_PrefabAsset: {fileID: 0}
  serializedVersion: 6
  m_Component:
  - component: {fileID: 445622}
  m_Layer: 0
  m_Name: VBOT_:RightHandRing3
  m_TagString: Untagged
  m_Icon: {fileID: 0}
  m_NavMeshLayer: 0
  m_StaticEditorFlags: 0
  m_IsActive: 1
--- !u!4 &445622
Transform:
  m_ObjectHideFlags: 0
  m_CorrespondingSourceObject: {fileID: 0}
  m_PrefabInstance: {fileID: 0}
  m_PrefabAsset: {fileID: 0}
  m_GameObject: {fileID: 108592}
  m_LocalRotation: {x: 0.0000003853574, y: -0.0000024102292, z: 0.000116190175, w: 1}
  m_LocalPosition: {x: -0.00084478216, y: 3.4413192, z: 0.000004537403}
  m_LocalScale: {x: 0.99999994, y: 1, z: 0.9999997}
  m_Children:
  - {fileID: 422112}
  m_Father: {fileID: 495558}
  m_RootOrder: 0
  m_LocalEulerAnglesHint: {x: 0, y: 0, z: 0}
--- !u!1 &109828
GameObject:
  m_ObjectHideFlags: 0
  m_CorrespondingSourceObject: {fileID: 0}
  m_PrefabInstance: {fileID: 0}
  m_PrefabAsset: {fileID: 0}
  serializedVersion: 6
  m_Component:
  - component: {fileID: 448698}
  m_Layer: 0
  m_Name: VBOT_:LeftHandMiddle3
  m_TagString: Untagged
  m_Icon: {fileID: 0}
  m_NavMeshLayer: 0
  m_StaticEditorFlags: 0
  m_IsActive: 1
--- !u!4 &448698
Transform:
  m_ObjectHideFlags: 0
  m_CorrespondingSourceObject: {fileID: 0}
  m_PrefabInstance: {fileID: 0}
  m_PrefabAsset: {fileID: 0}
  m_GameObject: {fileID: 109828}
  m_LocalRotation: {x: 0.0000016969184, y: -0.000004723498, z: 0.0005666729, w: 0.9999999}
  m_LocalPosition: {x: -0.0018412619, y: 3.8137584, z: 0.0000071693207}
  m_LocalScale: {x: 0.99999994, y: 1.0000006, z: 0.99999976}
  m_Children:
  - {fileID: 471958}
  m_Father: {fileID: 489164}
  m_RootOrder: 0
  m_LocalEulerAnglesHint: {x: 0, y: 0, z: 0}
--- !u!1 &110508
GameObject:
  m_ObjectHideFlags: 0
  m_CorrespondingSourceObject: {fileID: 0}
  m_PrefabInstance: {fileID: 0}
  m_PrefabAsset: {fileID: 0}
  serializedVersion: 6
  m_Component:
  - component: {fileID: 419186}
  m_Layer: 0
  m_Name: VBOT_:LeftHandThumb1
  m_TagString: Untagged
  m_Icon: {fileID: 0}
  m_NavMeshLayer: 0
  m_StaticEditorFlags: 0
  m_IsActive: 1
--- !u!4 &419186
Transform:
  m_ObjectHideFlags: 0
  m_CorrespondingSourceObject: {fileID: 0}
  m_PrefabInstance: {fileID: 0}
  m_PrefabAsset: {fileID: 0}
  m_GameObject: {fileID: 110508}
  m_LocalRotation: {x: 0.21708518, y: -0.08679054, z: -0.38361028, w: 0.89341176}
  m_LocalPosition: {x: 2.207032, y: 2.8915968, z: 1.3849902}
  m_LocalScale: {x: 1, y: 1.0000002, z: 0.99999964}
  m_Children:
  - {fileID: 437342}
  m_Father: {fileID: 443944}
  m_RootOrder: 4
  m_LocalEulerAnglesHint: {x: 0, y: 0, z: 0}
--- !u!1 &111094
GameObject:
  m_ObjectHideFlags: 0
  m_CorrespondingSourceObject: {fileID: 0}
  m_PrefabInstance: {fileID: 0}
  m_PrefabAsset: {fileID: 0}
  serializedVersion: 6
  m_Component:
  - component: {fileID: 459428}
  m_Layer: 0
  m_Name: VBOT_:LeftHandRing4
  m_TagString: Untagged
  m_Icon: {fileID: 0}
  m_NavMeshLayer: 0
  m_StaticEditorFlags: 0
  m_IsActive: 1
--- !u!4 &459428
Transform:
  m_ObjectHideFlags: 0
  m_CorrespondingSourceObject: {fileID: 0}
  m_PrefabInstance: {fileID: 0}
  m_PrefabAsset: {fileID: 0}
  m_GameObject: {fileID: 111094}
  m_LocalRotation: {x: 0.00000003154195, y: 0.0000000055908194, z: 0.0000000044438986,
    w: 1}
  m_LocalPosition: {x: -0.00041358636, y: 2.9665046, z: 0.000024707986}
  m_LocalScale: {x: 1, y: 1, z: 1}
  m_Children:
  - {fileID: 426990}
  m_Father: {fileID: 473768}
  m_RootOrder: 0
  m_LocalEulerAnglesHint: {x: 0, y: 0, z: 0}
--- !u!1 &111494
GameObject:
  m_ObjectHideFlags: 0
  m_CorrespondingSourceObject: {fileID: 0}
  m_PrefabInstance: {fileID: 0}
  m_PrefabAsset: {fileID: 0}
  serializedVersion: 6
  m_Component:
  - component: {fileID: 473768}
  m_Layer: 0
  m_Name: VBOT_:LeftHandRing3
  m_TagString: Untagged
  m_Icon: {fileID: 0}
  m_NavMeshLayer: 0
  m_StaticEditorFlags: 0
  m_IsActive: 1
--- !u!4 &473768
Transform:
  m_ObjectHideFlags: 0
  m_CorrespondingSourceObject: {fileID: 0}
  m_PrefabInstance: {fileID: 0}
  m_PrefabAsset: {fileID: 0}
  m_GameObject: {fileID: 111494}
  m_LocalRotation: {x: 0.0000019568083, y: -0.000005436704, z: -0.00003674567, w: 1}
  m_LocalPosition: {x: -0.00015043419, y: 3.256652, z: 0.000012098185}
  m_LocalScale: {x: 1.0000001, y: 0.99999994, z: 0.9999996}
  m_Children:
  - {fileID: 459428}
  m_Father: {fileID: 453074}
  m_RootOrder: 0
  m_LocalEulerAnglesHint: {x: 0, y: 0, z: 0}
--- !u!1 &112162
GameObject:
  m_ObjectHideFlags: 0
  m_CorrespondingSourceObject: {fileID: 0}
  m_PrefabInstance: {fileID: 0}
  m_PrefabAsset: {fileID: 0}
  serializedVersion: 6
  m_Component:
  - component: {fileID: 414652}
  m_Layer: 0
  m_Name: VBOT_:LeftToeBase
  m_TagString: Untagged
  m_Icon: {fileID: 0}
  m_NavMeshLayer: 0
  m_StaticEditorFlags: 0
  m_IsActive: 1
--- !u!4 &414652
Transform:
  m_ObjectHideFlags: 0
  m_CorrespondingSourceObject: {fileID: 0}
  m_PrefabInstance: {fileID: 0}
  m_PrefabAsset: {fileID: 0}
  m_GameObject: {fileID: 112162}
  m_LocalRotation: {x: 0.30737466, y: 0.05506234, z: -0.01781606, w: 0.94982713}
  m_LocalPosition: {x: -0.00000046880447, y: 16.945314, z: -0.00000080466265}
  m_LocalScale: {x: 0.99999976, y: 0.9999996, z: 0.9999995}
  m_Children:
  - {fileID: 496616}
  m_Father: {fileID: 466264}
  m_RootOrder: 0
  m_LocalEulerAnglesHint: {x: 0, y: 0, z: 0}
--- !u!1 &112400
GameObject:
  m_ObjectHideFlags: 0
  m_CorrespondingSourceObject: {fileID: 0}
  m_PrefabInstance: {fileID: 0}
  m_PrefabAsset: {fileID: 0}
  serializedVersion: 6
  m_Component:
  - component: {fileID: 430730}
  - component: {fileID: 13708090}
  m_Layer: 0
  m_Name: VBOT_:VBOT_LOD2
  m_TagString: Untagged
  m_Icon: {fileID: 0}
  m_NavMeshLayer: 0
  m_StaticEditorFlags: 0
  m_IsActive: 1
--- !u!4 &430730
Transform:
  m_ObjectHideFlags: 0
  m_CorrespondingSourceObject: {fileID: 0}
  m_PrefabInstance: {fileID: 0}
  m_PrefabAsset: {fileID: 0}
  m_GameObject: {fileID: 112400}
  m_LocalRotation: {x: 0.00000008122751, y: -0.0000000018335409, z: 1.1508664e-24,
    w: 1}
  m_LocalPosition: {x: 0, y: 0, z: 0}
  m_LocalScale: {x: 0.01, y: 0.009999999, z: 0.01}
  m_Children: []
  m_Father: {fileID: 458354}
  m_RootOrder: 2
  m_LocalEulerAnglesHint: {x: 0, y: 0, z: 0}
--- !u!137 &13708090
SkinnedMeshRenderer:
  m_ObjectHideFlags: 0
  m_CorrespondingSourceObject: {fileID: 0}
  m_PrefabInstance: {fileID: 0}
  m_PrefabAsset: {fileID: 0}
  m_GameObject: {fileID: 112400}
  m_Enabled: 1
  m_CastShadows: 1
  m_ReceiveShadows: 1
  m_DynamicOccludee: 1
  m_MotionVectors: 1
  m_LightProbeUsage: 1
  m_ReflectionProbeUsage: 1
  m_RenderingLayerMask: 1
  m_RendererPriority: 0
  m_Materials:
  - {fileID: 2100000, guid: 2fccb76f588d4d749928713d38489484, type: 2}
  - {fileID: 2100000, guid: df6e3b8b89f6ab04086bb67157f8e06e, type: 2}
  - {fileID: 2100000, guid: 33c350b6cd6102647be9afdfaec5b563, type: 2}
  - {fileID: 2100000, guid: 4a9aabb04c2af0e42a67b624135c49e7, type: 2}
  - {fileID: 2100000, guid: c90f59755f1461b4483f9f225b77813c, type: 2}
  - {fileID: 2100000, guid: f51c03443b297bb4a85e94d7738c2bb9, type: 2}
  - {fileID: 2100000, guid: a5e11a5a8f5eb46449d5ace6a06e4d54, type: 2}
  m_StaticBatchInfo:
    firstSubMesh: 0
    subMeshCount: 0
  m_StaticBatchRoot: {fileID: 0}
  m_ProbeAnchor: {fileID: 0}
  m_LightProbeVolumeOverride: {fileID: 0}
  m_ScaleInLightmap: 1
  m_PreserveUVs: 0
  m_IgnoreNormalsForChartDetection: 0
  m_ImportantGI: 0
  m_StitchLightmapSeams: 0
  m_SelectedEditorRenderState: 3
  m_MinimumChartSize: 4
  m_AutoUVMaxDistance: 0.5
  m_AutoUVMaxAngle: 89
  m_LightmapParameters: {fileID: 0}
  m_SortingLayerID: 0
  m_SortingLayer: 0
  m_SortingOrder: 0
  serializedVersion: 2
  m_Quality: 0
  m_UpdateWhenOffscreen: 0
  m_SkinnedMotionVectors: 1
  m_Mesh: {fileID: 4300002, guid: 340f99b8334a14c4a8a01dce6e1e5348, type: 3}
  m_Bones:
  - {fileID: 458192}
  - {fileID: 497430}
  - {fileID: 404340}
  - {fileID: 404408}
  - {fileID: 480034}
  - {fileID: 443502}
  - {fileID: 453176}
  - {fileID: 445294}
  - {fileID: 402386}
  - {fileID: 430694}
  - {fileID: 443944}
  - {fileID: 419186}
  - {fileID: 437342}
  - {fileID: 432302}
  - {fileID: 435832}
  - {fileID: 423342}
  - {fileID: 418808}
  - {fileID: 412180}
  - {fileID: 407454}
  - {fileID: 476544}
  - {fileID: 489164}
  - {fileID: 448698}
  - {fileID: 471958}
  - {fileID: 475332}
  - {fileID: 453074}
  - {fileID: 473768}
  - {fileID: 459428}
  - {fileID: 410072}
  - {fileID: 434540}
  - {fileID: 482446}
  - {fileID: 465784}
  - {fileID: 456678}
  - {fileID: 426282}
  - {fileID: 405084}
  - {fileID: 440192}
  - {fileID: 484674}
  - {fileID: 462714}
  - {fileID: 458272}
  - {fileID: 432512}
  - {fileID: 463416}
  - {fileID: 494144}
  - {fileID: 418374}
  - {fileID: 483756}
  - {fileID: 407132}
  - {fileID: 474282}
  - {fileID: 468218}
  - {fileID: 441240}
  - {fileID: 450896}
  - {fileID: 495558}
  - {fileID: 445622}
  - {fileID: 422112}
  - {fileID: 483450}
  - {fileID: 428214}
  - {fileID: 441212}
  - {fileID: 474624}
  - {fileID: 438746}
  - {fileID: 486260}
  - {fileID: 466264}
  - {fileID: 414652}
  - {fileID: 496616}
  - {fileID: 400738}
  - {fileID: 416608}
  - {fileID: 444884}
  - {fileID: 414890}
  - {fileID: 408318}
  m_BlendShapeWeights: []
  m_RootBone: {fileID: 458192}
  m_AABB:
    m_Center: {x: 0.0052452087, y: -20.604187, z: 4.9330816}
    m_Extent: {x: 98.921906, y: 96.18498, z: 27.401543}
  m_DirtyAABB: 0
--- !u!1 &112560
GameObject:
  m_ObjectHideFlags: 0
  m_CorrespondingSourceObject: {fileID: 0}
  m_PrefabInstance: {fileID: 0}
  m_PrefabAsset: {fileID: 0}
  serializedVersion: 6
  m_Component:
  - component: {fileID: 412180}
  m_Layer: 0
  m_Name: VBOT_:LeftHandIndex3
  m_TagString: Untagged
  m_Icon: {fileID: 0}
  m_NavMeshLayer: 0
  m_StaticEditorFlags: 0
  m_IsActive: 1
--- !u!4 &412180
Transform:
  m_ObjectHideFlags: 0
  m_CorrespondingSourceObject: {fileID: 0}
  m_PrefabInstance: {fileID: 0}
  m_PrefabAsset: {fileID: 0}
  m_GameObject: {fileID: 112560}
  m_LocalRotation: {x: 0.00000029828897, y: -0.0000003028567, z: 0.00006260211, w: 1}
  m_LocalPosition: {x: 0.0010102539, y: 3.357671, z: 0.0000006369955}
  m_LocalScale: {x: 1, y: 0.99999976, z: 1}
  m_Children:
  - {fileID: 407454}
  m_Father: {fileID: 418808}
  m_RootOrder: 0
  m_LocalEulerAnglesHint: {x: 0, y: 0, z: 0}
--- !u!1 &112574
GameObject:
  m_ObjectHideFlags: 0
  m_CorrespondingSourceObject: {fileID: 0}
  m_PrefabInstance: {fileID: 0}
  m_PrefabAsset: {fileID: 0}
  serializedVersion: 6
  m_Component:
  - component: {fileID: 404340}
  m_Layer: 0
  m_Name: VBOT_:Spine1
  m_TagString: Untagged
  m_Icon: {fileID: 0}
  m_NavMeshLayer: 0
  m_StaticEditorFlags: 0
  m_IsActive: 1
--- !u!4 &404340
Transform:
  m_ObjectHideFlags: 0
  m_CorrespondingSourceObject: {fileID: 0}
  m_PrefabInstance: {fileID: 0}
  m_PrefabAsset: {fileID: 0}
  m_GameObject: {fileID: 112574}
  m_LocalRotation: {x: 0.0000000046566133, y: -5.333572e-14, z: 6.8136756e-13, w: 1}
  m_LocalPosition: {x: 1.02090515e-11, y: 11.321213, z: -0.0000001788139}
  m_LocalScale: {x: 1, y: 0.99999994, z: 0.99999994}
  m_Children:
  - {fileID: 404408}
  m_Father: {fileID: 497430}
  m_RootOrder: 0
  m_LocalEulerAnglesHint: {x: 0, y: 0, z: 0}
--- !u!1 &113936
GameObject:
  m_ObjectHideFlags: 0
  m_CorrespondingSourceObject: {fileID: 0}
  m_PrefabInstance: {fileID: 0}
  m_PrefabAsset: {fileID: 0}
  serializedVersion: 6
  m_Component:
  - component: {fileID: 480034}
  m_Layer: 0
  m_Name: VBOT_:Neck
  m_TagString: Untagged
  m_Icon: {fileID: 0}
  m_NavMeshLayer: 0
  m_StaticEditorFlags: 0
  m_IsActive: 1
--- !u!4 &480034
Transform:
  m_ObjectHideFlags: 0
  m_CorrespondingSourceObject: {fileID: 0}
  m_PrefabInstance: {fileID: 0}
  m_PrefabAsset: {fileID: 0}
  m_GameObject: {fileID: 113936}
  m_LocalRotation: {x: 0.00785081, y: 4.084771e-14, z: 2.2770148e-13, w: 0.9999692}
  m_LocalPosition: {x: -1.8170866e-11, y: 14.5558195, z: -0.0000001788139}
  m_LocalScale: {x: 1, y: 0.9999996, z: 0.99999964}
  m_Children:
  - {fileID: 443502}
  m_Father: {fileID: 404408}
  m_RootOrder: 1
  m_LocalEulerAnglesHint: {x: 0, y: 0, z: 0}
--- !u!1 &115964
GameObject:
  m_ObjectHideFlags: 0
  m_CorrespondingSourceObject: {fileID: 0}
  m_PrefabInstance: {fileID: 0}
  m_PrefabAsset: {fileID: 0}
  serializedVersion: 6
  m_Component:
  - component: {fileID: 441240}
  m_Layer: 0
  m_Name: VBOT_:RightHandMiddle4
  m_TagString: Untagged
  m_Icon: {fileID: 0}
  m_NavMeshLayer: 0
  m_StaticEditorFlags: 0
  m_IsActive: 1
--- !u!4 &441240
Transform:
  m_ObjectHideFlags: 0
  m_CorrespondingSourceObject: {fileID: 0}
  m_PrefabInstance: {fileID: 0}
  m_PrefabAsset: {fileID: 0}
  m_GameObject: {fileID: 115964}
  m_LocalRotation: {x: -0.00000003355308, y: -7.557048e-10, z: -0.000000006678988,
    w: 1}
  m_LocalPosition: {x: -0.010218023, y: 3.6506317, z: -0.000012870877}
  m_LocalScale: {x: 1, y: 1, z: 1}
  m_Children:
  - {fileID: 450756}
  m_Father: {fileID: 468218}
  m_RootOrder: 0
  m_LocalEulerAnglesHint: {x: 0, y: 0, z: 0}
--- !u!1 &116404
GameObject:
  m_ObjectHideFlags: 0
  m_CorrespondingSourceObject: {fileID: 0}
  m_PrefabInstance: {fileID: 0}
  m_PrefabAsset: {fileID: 0}
  serializedVersion: 6
  m_Component:
  - component: {fileID: 445294}
  m_Layer: 0
  m_Name: VBOT_:LeftShoulder
  m_TagString: Untagged
  m_Icon: {fileID: 0}
  m_NavMeshLayer: 0
  m_StaticEditorFlags: 0
  m_IsActive: 1
--- !u!4 &445294
Transform:
  m_ObjectHideFlags: 0
  m_CorrespondingSourceObject: {fileID: 0}
  m_PrefabInstance: {fileID: 0}
  m_PrefabAsset: {fileID: 0}
  m_GameObject: {fileID: 116404}
  m_LocalRotation: {x: 0.56555074, y: -0.42279127, z: 0.5711599, w: 0.41854063}
  m_LocalPosition: {x: -6.233017, y: 12.723451, z: -0.060752567}
  m_LocalScale: {x: 0.99999946, y: 0.9999997, z: 0.9999995}
  m_Children:
  - {fileID: 402386}
  m_Father: {fileID: 404408}
  m_RootOrder: 0
  m_LocalEulerAnglesHint: {x: 0, y: 0, z: 0}
--- !u!1 &117308
GameObject:
  m_ObjectHideFlags: 0
  m_CorrespondingSourceObject: {fileID: 0}
  m_PrefabInstance: {fileID: 0}
  m_PrefabAsset: {fileID: 0}
  serializedVersion: 6
  m_Component:
  - component: {fileID: 430694}
  m_Layer: 0
  m_Name: VBOT_:LeftForeArm
  m_TagString: Untagged
  m_Icon: {fileID: 0}
  m_NavMeshLayer: 0
  m_StaticEditorFlags: 0
  m_IsActive: 1
--- !u!4 &430694
Transform:
  m_ObjectHideFlags: 0
  m_CorrespondingSourceObject: {fileID: 0}
  m_PrefabInstance: {fileID: 0}
  m_PrefabAsset: {fileID: 0}
  m_GameObject: {fileID: 117308}
  m_LocalRotation: {x: 0.0000014798451, y: 0.00010023918, z: 0.00000030412875, w: 1}
  m_LocalPosition: {x: -0.00000024976904, y: 28.782936, z: 0.000004796884}
  m_LocalScale: {x: 1.0000001, y: 0.99999964, z: 0.9999999}
  m_Children:
  - {fileID: 443944}
  m_Father: {fileID: 402386}
  m_RootOrder: 0
  m_LocalEulerAnglesHint: {x: 0, y: 0, z: 0}
--- !u!1 &117948
GameObject:
  m_ObjectHideFlags: 0
  m_CorrespondingSourceObject: {fileID: 0}
  m_PrefabInstance: {fileID: 0}
  m_PrefabAsset: {fileID: 0}
  serializedVersion: 6
  m_Component:
  - component: {fileID: 495558}
  m_Layer: 0
  m_Name: VBOT_:RightHandRing2
  m_TagString: Untagged
  m_Icon: {fileID: 0}
  m_NavMeshLayer: 0
  m_StaticEditorFlags: 0
  m_IsActive: 1
--- !u!4 &495558
Transform:
  m_ObjectHideFlags: 0
  m_CorrespondingSourceObject: {fileID: 0}
  m_PrefabInstance: {fileID: 0}
  m_PrefabAsset: {fileID: 0}
  m_GameObject: {fileID: 117948}
  m_LocalRotation: {x: -0.0000007118655, y: -0.00000040345734, z: -0.00024250762,
    w: 1}
  m_LocalPosition: {x: 0.000864461, y: 3.5615304, z: -0.000015171244}
  m_LocalScale: {x: 1, y: 0.99999994, z: 1}
  m_Children:
  - {fileID: 445622}
  m_Father: {fileID: 450896}
  m_RootOrder: 0
  m_LocalEulerAnglesHint: {x: 0, y: 0, z: 0}
--- !u!1 &118326
GameObject:
  m_ObjectHideFlags: 0
  m_CorrespondingSourceObject: {fileID: 0}
  m_PrefabInstance: {fileID: 0}
  m_PrefabAsset: {fileID: 0}
  serializedVersion: 6
  m_Component:
  - component: {fileID: 407132}
  m_Layer: 0
  m_Name: VBOT_:RightHandMiddle1
  m_TagString: Untagged
  m_Icon: {fileID: 0}
  m_NavMeshLayer: 0
  m_StaticEditorFlags: 0
  m_IsActive: 1
--- !u!4 &407132
Transform:
  m_ObjectHideFlags: 0
  m_CorrespondingSourceObject: {fileID: 0}
  m_PrefabInstance: {fileID: 0}
  m_PrefabAsset: {fileID: 0}
  m_GameObject: {fileID: 118326}
  m_LocalRotation: {x: -0.006425467, y: 0.002276494, z: 0.053364556, w: 0.99855185}
  m_LocalPosition: {x: -1.0459455, y: 9.890944, z: -0.12528582}
  m_LocalScale: {x: 0.99999934, y: 0.9999995, z: 0.9999997}
  m_Children:
  - {fileID: 474282}
  m_Father: {fileID: 440192}
  m_RootOrder: 1
  m_LocalEulerAnglesHint: {x: 0, y: 0, z: 0}
--- !u!1 &118578
GameObject:
  m_ObjectHideFlags: 0
  m_CorrespondingSourceObject: {fileID: 0}
  m_PrefabInstance: {fileID: 0}
  m_PrefabAsset: {fileID: 0}
  serializedVersion: 6
  m_Component:
  - component: {fileID: 476544}
  m_Layer: 0
  m_Name: VBOT_:LeftHandMiddle1
  m_TagString: Untagged
  m_Icon: {fileID: 0}
  m_NavMeshLayer: 0
  m_StaticEditorFlags: 0
  m_IsActive: 1
--- !u!4 &476544
Transform:
  m_ObjectHideFlags: 0
  m_CorrespondingSourceObject: {fileID: 0}
  m_PrefabInstance: {fileID: 0}
  m_PrefabAsset: {fileID: 0}
  m_GameObject: {fileID: 118578}
  m_LocalRotation: {x: -0.0007780783, y: -0.0035744617, z: -0.057712052, w: 0.9983266}
  m_LocalPosition: {x: 1.1613122, y: 10.023253, z: -0.011463714}
  m_LocalScale: {x: 1, y: 1.0000005, z: 0.9999997}
  m_Children:
  - {fileID: 489164}
  m_Father: {fileID: 443944}
  m_RootOrder: 1
  m_LocalEulerAnglesHint: {x: 0, y: 0, z: 0}
--- !u!1 &118892
GameObject:
  m_ObjectHideFlags: 0
  m_CorrespondingSourceObject: {fileID: 0}
  m_PrefabInstance: {fileID: 0}
  m_PrefabAsset: {fileID: 0}
  serializedVersion: 6
  m_Component:
  - component: {fileID: 496616}
  m_Layer: 0
  m_Name: VBOT_:LeftToe_End
  m_TagString: Untagged
  m_Icon: {fileID: 0}
  m_NavMeshLayer: 0
  m_StaticEditorFlags: 0
  m_IsActive: 1
--- !u!4 &496616
Transform:
  m_ObjectHideFlags: 0
  m_CorrespondingSourceObject: {fileID: 0}
  m_PrefabInstance: {fileID: 0}
  m_PrefabAsset: {fileID: 0}
  m_GameObject: {fileID: 118892}
  m_LocalRotation: {x: -0.000000012223608, y: -0.000004991947, z: 0.00000046117927,
    w: 1}
  m_LocalPosition: {x: -0.000001521781, y: 6.2084913, z: 0.00000005960464}
  m_LocalScale: {x: 1, y: 1.0000001, z: 1}
  m_Children:
  - {fileID: 452182}
  m_Father: {fileID: 414652}
  m_RootOrder: 0
  m_LocalEulerAnglesHint: {x: 0, y: 0, z: 0}
--- !u!1 &119994
GameObject:
  m_ObjectHideFlags: 0
  m_CorrespondingSourceObject: {fileID: 0}
  m_PrefabInstance: {fileID: 0}
  m_PrefabAsset: {fileID: 0}
  serializedVersion: 6
  m_Component:
  - component: {fileID: 444884}
  m_Layer: 0
  m_Name: VBOT_:RightFoot
  m_TagString: Untagged
  m_Icon: {fileID: 0}
  m_NavMeshLayer: 0
  m_StaticEditorFlags: 0
  m_IsActive: 1
--- !u!4 &444884
Transform:
  m_ObjectHideFlags: 0
  m_CorrespondingSourceObject: {fileID: 0}
  m_PrefabInstance: {fileID: 0}
  m_PrefabAsset: {fileID: 0}
  m_GameObject: {fileID: 119994}
  m_LocalRotation: {x: 0.48199156, y: 0.0065317303, z: 0.004921196, w: 0.8761377}
  m_LocalPosition: {x: 0.0000007188318, y: 42.515278, z: -0.0000045327465}
  m_LocalScale: {x: 1.0000006, y: 1.0000002, z: 0.9999993}
  m_Children:
  - {fileID: 414890}
  m_Father: {fileID: 416608}
  m_RootOrder: 0
  m_LocalEulerAnglesHint: {x: 0, y: 0, z: 0}
--- !u!1 &121842
GameObject:
  m_ObjectHideFlags: 0
  m_CorrespondingSourceObject: {fileID: 0}
  m_PrefabInstance: {fileID: 0}
  m_PrefabAsset: {fileID: 0}
  serializedVersion: 6
  m_Component:
  - component: {fileID: 462714}
  m_Layer: 0
  m_Name: VBOT_:RightHandThumb2
  m_TagString: Untagged
  m_Icon: {fileID: 0}
  m_NavMeshLayer: 0
  m_StaticEditorFlags: 0
  m_IsActive: 1
--- !u!4 &462714
Transform:
  m_ObjectHideFlags: 0
  m_CorrespondingSourceObject: {fileID: 0}
  m_PrefabInstance: {fileID: 0}
  m_PrefabAsset: {fileID: 0}
  m_GameObject: {fileID: 121842}
  m_LocalRotation: {x: 0.00010331243, y: 0.003032002, z: -0.10960612, w: 0.9939705}
  m_LocalPosition: {x: 0.4479191, y: 3.0840445, z: 0.0000027716158}
  m_LocalScale: {x: 1, y: 1, z: 1}
  m_Children:
  - {fileID: 458272}
  m_Father: {fileID: 484674}
  m_RootOrder: 0
  m_LocalEulerAnglesHint: {x: 0, y: 0, z: 0}
--- !u!1 &125040
GameObject:
  m_ObjectHideFlags: 0
  m_CorrespondingSourceObject: {fileID: 0}
  m_PrefabInstance: {fileID: 0}
  m_PrefabAsset: {fileID: 0}
  serializedVersion: 6
  m_Component:
  - component: {fileID: 498942}
  m_Layer: 0
  m_Name: Armature
  m_TagString: Player
  m_Icon: {fileID: 0}
  m_NavMeshLayer: 0
  m_StaticEditorFlags: 0
  m_IsActive: 1
--- !u!4 &498942
Transform:
  m_ObjectHideFlags: 0
  m_CorrespondingSourceObject: {fileID: 0}
  m_PrefabInstance: {fileID: 0}
  m_PrefabAsset: {fileID: 0}
  m_GameObject: {fileID: 125040}
  m_LocalRotation: {x: 0.000000081460335, y: -0, z: 0, w: 1}
  m_LocalPosition: {x: 0, y: 0, z: 0}
  m_LocalScale: {x: 0.01, y: 0.01, z: 0.01}
  m_Children:
  - {fileID: 458192}
  m_Father: {fileID: 469886}
  m_RootOrder: 0
  m_LocalEulerAnglesHint: {x: 0, y: 0, z: 0}
--- !u!1 &125764
GameObject:
  m_ObjectHideFlags: 0
  m_CorrespondingSourceObject: {fileID: 0}
  m_PrefabInstance: {fileID: 0}
  m_PrefabAsset: {fileID: 0}
  serializedVersion: 6
  m_Component:
  - component: {fileID: 484674}
  m_Layer: 0
  m_Name: VBOT_:RightHandThumb1
  m_TagString: Untagged
  m_Icon: {fileID: 0}
  m_NavMeshLayer: 0
  m_StaticEditorFlags: 0
  m_IsActive: 1
--- !u!4 &484674
Transform:
  m_ObjectHideFlags: 0
  m_CorrespondingSourceObject: {fileID: 0}
  m_PrefabInstance: {fileID: 0}
  m_PrefabAsset: {fileID: 0}
  m_GameObject: {fileID: 125764}
  m_LocalRotation: {x: 0.20649847, y: 0.08570003, z: 0.37565327, w: 0.89938784}
  m_LocalPosition: {x: -2.1773484, y: 2.860778, z: 1.5000123}
  m_LocalScale: {x: 1.0000001, y: 0.9999995, z: 0.9999996}
  m_Children:
  - {fileID: 462714}
  m_Father: {fileID: 440192}
  m_RootOrder: 4
  m_LocalEulerAnglesHint: {x: 0, y: 0, z: 0}
--- !u!1 &129894
GameObject:
  m_ObjectHideFlags: 0
  m_CorrespondingSourceObject: {fileID: 0}
  m_PrefabInstance: {fileID: 0}
  m_PrefabAsset: {fileID: 0}
  serializedVersion: 6
  m_Component:
  - component: {fileID: 414890}
  m_Layer: 0
  m_Name: VBOT_:RightToeBase
  m_TagString: Untagged
  m_Icon: {fileID: 0}
  m_NavMeshLayer: 0
  m_StaticEditorFlags: 0
  m_IsActive: 1
--- !u!4 &414890
Transform:
  m_ObjectHideFlags: 0
  m_CorrespondingSourceObject: {fileID: 0}
  m_PrefabInstance: {fileID: 0}
  m_PrefabAsset: {fileID: 0}
  m_GameObject: {fileID: 129894}
  m_LocalRotation: {x: 0.30412865, y: -0.055317834, z: 0.017672166, w: 0.9508593}
  m_LocalPosition: {x: 0.000000012107193, y: 17.102888, z: 0.0000004842877}
  m_LocalScale: {x: 0.9999993, y: 1.0000002, z: 0.9999997}
  m_Children:
  - {fileID: 408318}
  m_Father: {fileID: 444884}
  m_RootOrder: 0
  m_LocalEulerAnglesHint: {x: 0, y: 0, z: 0}
--- !u!1 &131876
GameObject:
  m_ObjectHideFlags: 0
  m_CorrespondingSourceObject: {fileID: 0}
  m_PrefabInstance: {fileID: 0}
  m_PrefabAsset: {fileID: 0}
  serializedVersion: 6
  m_Component:
  - component: {fileID: 458192}
  m_Layer: 0
  m_Name: VBOT_:Hips
  m_TagString: Untagged
  m_Icon: {fileID: 0}
  m_NavMeshLayer: 0
  m_StaticEditorFlags: 0
  m_IsActive: 1
--- !u!4 &458192
Transform:
  m_ObjectHideFlags: 0
  m_CorrespondingSourceObject: {fileID: 0}
  m_PrefabInstance: {fileID: 0}
  m_PrefabAsset: {fileID: 0}
  m_GameObject: {fileID: 131876}
  m_LocalRotation: {x: -0.00000017530357, y: 0.00000047677122, z: -0.000014443002,
    w: 1}
  m_LocalPosition: {x: 0.00019899552, y: 104.913734, z: -1.9585699}
  m_LocalScale: {x: 1, y: 1, z: 1}
  m_Children:
  - {fileID: 438746}
  - {fileID: 400738}
  - {fileID: 497430}
  m_Father: {fileID: 498942}
  m_RootOrder: 0
  m_LocalEulerAnglesHint: {x: 0, y: 0, z: 0}
--- !u!1 &135030
GameObject:
  m_ObjectHideFlags: 0
  m_CorrespondingSourceObject: {fileID: 0}
  m_PrefabInstance: {fileID: 0}
  m_PrefabAsset: {fileID: 0}
  serializedVersion: 6
  m_Component:
  - component: {fileID: 453176}
  m_Layer: 0
  m_Name: VBOT_:HeadTop_End
  m_TagString: Untagged
  m_Icon: {fileID: 0}
  m_NavMeshLayer: 0
  m_StaticEditorFlags: 0
  m_IsActive: 1
--- !u!4 &453176
Transform:
  m_ObjectHideFlags: 0
  m_CorrespondingSourceObject: {fileID: 0}
  m_PrefabInstance: {fileID: 0}
  m_PrefabAsset: {fileID: 0}
  m_GameObject: {fileID: 135030}
  m_LocalRotation: {x: 1.6653348e-16, y: 4.387005e-19, z: 9.1814114e-20, w: 1}
  m_LocalPosition: {x: -1.5957928e-11, y: 20.432783, z: 8.657652}
  m_LocalScale: {x: 1, y: 1, z: 1}
  m_Children:
  - {fileID: 419108}
  m_Father: {fileID: 443502}
  m_RootOrder: 0
  m_LocalEulerAnglesHint: {x: 0, y: 0, z: 0}
--- !u!1 &136580
GameObject:
  m_ObjectHideFlags: 0
  m_CorrespondingSourceObject: {fileID: 0}
  m_PrefabInstance: {fileID: 0}
  m_PrefabAsset: {fileID: 0}
  serializedVersion: 6
  m_Component:
  - component: {fileID: 437342}
  m_Layer: 0
  m_Name: VBOT_:LeftHandThumb2
  m_TagString: Untagged
  m_Icon: {fileID: 0}
  m_NavMeshLayer: 0
  m_StaticEditorFlags: 0
  m_IsActive: 1
--- !u!4 &437342
Transform:
  m_ObjectHideFlags: 0
  m_CorrespondingSourceObject: {fileID: 0}
  m_PrefabInstance: {fileID: 0}
  m_PrefabAsset: {fileID: 0}
  m_GameObject: {fileID: 136580}
  m_LocalRotation: {x: 0.00008349873, y: -0.003154348, z: 0.13292927, w: 0.9911205}
  m_LocalPosition: {x: -0.4968084, y: 3.0740163, z: 0.000013850628}
  m_LocalScale: {x: 1, y: 1, z: 1.0000001}
  m_Children:
  - {fileID: 432302}
  m_Father: {fileID: 419186}
  m_RootOrder: 0
  m_LocalEulerAnglesHint: {x: 0, y: 0, z: 0}
--- !u!1 &136854
GameObject:
  m_ObjectHideFlags: 0
  m_CorrespondingSourceObject: {fileID: 0}
  m_PrefabInstance: {fileID: 0}
  m_PrefabAsset: {fileID: 0}
  serializedVersion: 6
  m_Component:
  - component: {fileID: 473694}
  - component: {fileID: 13747300}
  m_Layer: 0
  m_Name: VBOT_:VBOT_LOD1
  m_TagString: Untagged
  m_Icon: {fileID: 0}
  m_NavMeshLayer: 0
  m_StaticEditorFlags: 0
  m_IsActive: 1
--- !u!4 &473694
Transform:
  m_ObjectHideFlags: 0
  m_CorrespondingSourceObject: {fileID: 0}
  m_PrefabInstance: {fileID: 0}
  m_PrefabAsset: {fileID: 0}
  m_GameObject: {fileID: 136854}
  m_LocalRotation: {x: 0.00000008122751, y: -0.0000000018335409, z: 1.1508664e-24,
    w: 1}
  m_LocalPosition: {x: 0, y: 0, z: 0}
  m_LocalScale: {x: 0.01, y: 0.009999999, z: 0.01}
  m_Children: []
  m_Father: {fileID: 458354}
  m_RootOrder: 1
  m_LocalEulerAnglesHint: {x: 0, y: 0, z: 0}
--- !u!137 &13747300
SkinnedMeshRenderer:
  m_ObjectHideFlags: 0
  m_CorrespondingSourceObject: {fileID: 0}
  m_PrefabInstance: {fileID: 0}
  m_PrefabAsset: {fileID: 0}
  m_GameObject: {fileID: 136854}
  m_Enabled: 1
  m_CastShadows: 1
  m_ReceiveShadows: 1
  m_DynamicOccludee: 1
  m_MotionVectors: 1
  m_LightProbeUsage: 1
  m_ReflectionProbeUsage: 1
  m_RenderingLayerMask: 1
  m_RendererPriority: 0
  m_Materials:
  - {fileID: 2100000, guid: 2fccb76f588d4d749928713d38489484, type: 2}
  - {fileID: 2100000, guid: df6e3b8b89f6ab04086bb67157f8e06e, type: 2}
  - {fileID: 2100000, guid: 33c350b6cd6102647be9afdfaec5b563, type: 2}
  - {fileID: 2100000, guid: 4a9aabb04c2af0e42a67b624135c49e7, type: 2}
  - {fileID: 2100000, guid: c90f59755f1461b4483f9f225b77813c, type: 2}
  - {fileID: 2100000, guid: f51c03443b297bb4a85e94d7738c2bb9, type: 2}
  - {fileID: 2100000, guid: a5e11a5a8f5eb46449d5ace6a06e4d54, type: 2}
  m_StaticBatchInfo:
    firstSubMesh: 0
    subMeshCount: 0
  m_StaticBatchRoot: {fileID: 0}
  m_ProbeAnchor: {fileID: 0}
  m_LightProbeVolumeOverride: {fileID: 0}
  m_ScaleInLightmap: 1
  m_PreserveUVs: 0
  m_IgnoreNormalsForChartDetection: 0
  m_ImportantGI: 0
  m_StitchLightmapSeams: 0
  m_SelectedEditorRenderState: 3
  m_MinimumChartSize: 4
  m_AutoUVMaxDistance: 0.5
  m_AutoUVMaxAngle: 89
  m_LightmapParameters: {fileID: 0}
  m_SortingLayerID: 0
  m_SortingLayer: 0
  m_SortingOrder: 0
  serializedVersion: 2
  m_Quality: 0
  m_UpdateWhenOffscreen: 0
  m_SkinnedMotionVectors: 1
  m_Mesh: {fileID: 4300004, guid: 340f99b8334a14c4a8a01dce6e1e5348, type: 3}
  m_Bones:
  - {fileID: 458192}
  - {fileID: 497430}
  - {fileID: 404340}
  - {fileID: 404408}
  - {fileID: 480034}
  - {fileID: 443502}
  - {fileID: 453176}
  - {fileID: 445294}
  - {fileID: 402386}
  - {fileID: 430694}
  - {fileID: 443944}
  - {fileID: 419186}
  - {fileID: 437342}
  - {fileID: 432302}
  - {fileID: 435832}
  - {fileID: 423342}
  - {fileID: 418808}
  - {fileID: 412180}
  - {fileID: 407454}
  - {fileID: 476544}
  - {fileID: 489164}
  - {fileID: 448698}
  - {fileID: 471958}
  - {fileID: 475332}
  - {fileID: 453074}
  - {fileID: 473768}
  - {fileID: 459428}
  - {fileID: 410072}
  - {fileID: 434540}
  - {fileID: 482446}
  - {fileID: 465784}
  - {fileID: 456678}
  - {fileID: 426282}
  - {fileID: 405084}
  - {fileID: 440192}
  - {fileID: 484674}
  - {fileID: 462714}
  - {fileID: 458272}
  - {fileID: 432512}
  - {fileID: 463416}
  - {fileID: 494144}
  - {fileID: 418374}
  - {fileID: 483756}
  - {fileID: 407132}
  - {fileID: 474282}
  - {fileID: 468218}
  - {fileID: 441240}
  - {fileID: 450896}
  - {fileID: 495558}
  - {fileID: 445622}
  - {fileID: 422112}
  - {fileID: 483450}
  - {fileID: 428214}
  - {fileID: 441212}
  - {fileID: 474624}
  - {fileID: 438746}
  - {fileID: 486260}
  - {fileID: 466264}
  - {fileID: 414652}
  - {fileID: 496616}
  - {fileID: 400738}
  - {fileID: 416608}
  - {fileID: 444884}
  - {fileID: 414890}
  - {fileID: 408318}
  m_BlendShapeWeights: []
  m_RootBone: {fileID: 458192}
  m_AABB:
    m_Center: {x: 0.0058937073, y: -20.591595, z: 4.5108624}
    m_Extent: {x: 98.883606, y: 96.17589, z: 26.979374}
  m_DirtyAABB: 0
--- !u!1 &136930
GameObject:
  m_ObjectHideFlags: 0
  m_CorrespondingSourceObject: {fileID: 0}
  m_PrefabInstance: {fileID: 0}
  m_PrefabAsset: {fileID: 0}
  serializedVersion: 6
  m_Component:
  - component: {fileID: 468624}
  m_Layer: 0
  m_Name: VBOT_:RightHandIndex4_end
  m_TagString: Untagged
  m_Icon: {fileID: 0}
  m_NavMeshLayer: 0
  m_StaticEditorFlags: 0
  m_IsActive: 1
--- !u!4 &468624
Transform:
  m_ObjectHideFlags: 0
  m_CorrespondingSourceObject: {fileID: 0}
  m_PrefabInstance: {fileID: 0}
  m_PrefabAsset: {fileID: 0}
  m_GameObject: {fileID: 136930}
  m_LocalRotation: {x: 0, y: 0, z: 0, w: 1}
  m_LocalPosition: {x: -0, y: 2.9180162, z: 0}
  m_LocalScale: {x: 1, y: 1, z: 1}
  m_Children: []
  m_Father: {fileID: 483756}
  m_RootOrder: 0
  m_LocalEulerAnglesHint: {x: 0, y: 0, z: 0}
--- !u!1 &137412
GameObject:
  m_ObjectHideFlags: 0
  m_CorrespondingSourceObject: {fileID: 0}
  m_PrefabInstance: {fileID: 0}
  m_PrefabAsset: {fileID: 0}
  serializedVersion: 6
  m_Component:
  - component: {fileID: 403724}
  m_Layer: 0
  m_Name: VBOT_:RightToe_End_end
  m_TagString: Untagged
  m_Icon: {fileID: 0}
  m_NavMeshLayer: 0
  m_StaticEditorFlags: 0
  m_IsActive: 1
--- !u!4 &403724
Transform:
  m_ObjectHideFlags: 0
  m_CorrespondingSourceObject: {fileID: 0}
  m_PrefabInstance: {fileID: 0}
  m_PrefabAsset: {fileID: 0}
  m_GameObject: {fileID: 137412}
  m_LocalRotation: {x: 0, y: 0, z: 0, w: 1}
  m_LocalPosition: {x: -0, y: 6.2414274, z: 0}
  m_LocalScale: {x: 1, y: 1, z: 1}
  m_Children: []
  m_Father: {fileID: 408318}
  m_RootOrder: 0
  m_LocalEulerAnglesHint: {x: 0, y: 0, z: 0}
--- !u!1 &138140
GameObject:
  m_ObjectHideFlags: 0
  m_CorrespondingSourceObject: {fileID: 0}
  m_PrefabInstance: {fileID: 0}
  m_PrefabAsset: {fileID: 0}
  serializedVersion: 6
  m_Component:
  - component: {fileID: 443502}
  m_Layer: 0
  m_Name: VBOT_:Head
  m_TagString: Untagged
  m_Icon: {fileID: 0}
  m_NavMeshLayer: 0
  m_StaticEditorFlags: 0
  m_IsActive: 1
--- !u!4 &443502
Transform:
  m_ObjectHideFlags: 0
  m_CorrespondingSourceObject: {fileID: 0}
  m_PrefabInstance: {fileID: 0}
  m_PrefabAsset: {fileID: 0}
  m_GameObject: {fileID: 138140}
  m_LocalRotation: {x: 1.6653348e-16, y: 4.387005e-19, z: 9.1814114e-20, w: 1}
  m_LocalPosition: {x: -7.3683655e-12, y: 5.6972804, z: 2.4140098}
  m_LocalScale: {x: 1, y: 1, z: 1}
  m_Children:
  - {fileID: 453176}
  m_Father: {fileID: 480034}
  m_RootOrder: 0
  m_LocalEulerAnglesHint: {x: 0, y: 0, z: 0}
--- !u!1 &138142
GameObject:
  m_ObjectHideFlags: 0
  m_CorrespondingSourceObject: {fileID: 0}
  m_PrefabInstance: {fileID: 0}
  m_PrefabAsset: {fileID: 0}
  serializedVersion: 6
  m_Component:
  - component: {fileID: 426990}
  m_Layer: 0
  m_Name: VBOT_:LeftHandRing4_end
  m_TagString: Untagged
  m_Icon: {fileID: 0}
  m_NavMeshLayer: 0
  m_StaticEditorFlags: 0
  m_IsActive: 1
--- !u!4 &426990
Transform:
  m_ObjectHideFlags: 0
  m_CorrespondingSourceObject: {fileID: 0}
  m_PrefabInstance: {fileID: 0}
  m_PrefabAsset: {fileID: 0}
  m_GameObject: {fileID: 138142}
  m_LocalRotation: {x: 0, y: 0, z: 0, w: 1}
  m_LocalPosition: {x: -0, y: 2.966476, z: 0}
  m_LocalScale: {x: 1, y: 1, z: 1}
  m_Children: []
  m_Father: {fileID: 459428}
  m_RootOrder: 0
  m_LocalEulerAnglesHint: {x: 0, y: 0, z: 0}
--- !u!1 &138360
GameObject:
  m_ObjectHideFlags: 0
  m_CorrespondingSourceObject: {fileID: 0}
  m_PrefabInstance: {fileID: 0}
  m_PrefabAsset: {fileID: 0}
  serializedVersion: 6
  m_Component:
  - component: {fileID: 438746}
  m_Layer: 0
  m_Name: VBOT_:LeftUpLeg
  m_TagString: Untagged
  m_Icon: {fileID: 0}
  m_NavMeshLayer: 0
  m_StaticEditorFlags: 0
  m_IsActive: 1
--- !u!4 &438746
Transform:
  m_ObjectHideFlags: 0
  m_CorrespondingSourceObject: {fileID: 0}
  m_PrefabInstance: {fileID: 0}
  m_PrefabAsset: {fileID: 0}
  m_GameObject: {fileID: 138360}
  m_LocalRotation: {x: -0.000032394124, y: 0.0055751884, z: 0.99996626, w: 0.0060344283}
  m_LocalPosition: {x: -10.920647, y: -5.3976464, z: 1.9481007}
  m_LocalScale: {x: 1.0000803, y: 1.0000002, z: 1.0000001}
  m_Children:
  - {fileID: 486260}
  m_Father: {fileID: 458192}
  m_RootOrder: 0
  m_LocalEulerAnglesHint: {x: 0, y: 0, z: 0}
--- !u!1 &138780
GameObject:
  m_ObjectHideFlags: 0
  m_CorrespondingSourceObject: {fileID: 0}
  m_PrefabInstance: {fileID: 0}
  m_PrefabAsset: {fileID: 0}
  serializedVersion: 6
  m_Component:
  - component: {fileID: 444388}
  m_Layer: 0
  m_Name: VBOT_:LeftHandThumb4_end
  m_TagString: Untagged
  m_Icon: {fileID: 0}
  m_NavMeshLayer: 0
  m_StaticEditorFlags: 0
  m_IsActive: 1
--- !u!4 &444388
Transform:
  m_ObjectHideFlags: 0
  m_CorrespondingSourceObject: {fileID: 0}
  m_PrefabInstance: {fileID: 0}
  m_PrefabAsset: {fileID: 0}
  m_GameObject: {fileID: 138780}
  m_LocalRotation: {x: 0, y: 0, z: 0, w: 1}
  m_LocalPosition: {x: -0, y: 3.4855406, z: 0}
  m_LocalScale: {x: 1, y: 1, z: 1}
  m_Children: []
  m_Father: {fileID: 435832}
  m_RootOrder: 0
  m_LocalEulerAnglesHint: {x: 0, y: 0, z: 0}
--- !u!1 &140396
GameObject:
  m_ObjectHideFlags: 0
  m_CorrespondingSourceObject: {fileID: 0}
  m_PrefabInstance: {fileID: 0}
  m_PrefabAsset: {fileID: 0}
  serializedVersion: 6
  m_Component:
  - component: {fileID: 416608}
  m_Layer: 0
  m_Name: VBOT_:RightLeg
  m_TagString: Untagged
  m_Icon: {fileID: 0}
  m_NavMeshLayer: 0
  m_StaticEditorFlags: 0
  m_IsActive: 1
--- !u!4 &416608
Transform:
  m_ObjectHideFlags: 0
  m_CorrespondingSourceObject: {fileID: 0}
  m_PrefabInstance: {fileID: 0}
  m_PrefabAsset: {fileID: 0}
  m_GameObject: {fileID: 140396}
  m_LocalRotation: {x: -0.045270246, y: 0.00038048133, z: -0.012654801, w: 0.9988946}
  m_LocalPosition: {x: 0.00000036699382, y: 46.442978, z: 0.00000006676418}
  m_LocalScale: {x: 0.99999946, y: 1.0000006, z: 0.99999976}
  m_Children:
  - {fileID: 444884}
  m_Father: {fileID: 400738}
  m_RootOrder: 0
  m_LocalEulerAnglesHint: {x: 0, y: 0, z: 0}
--- !u!1 &143530
GameObject:
  m_ObjectHideFlags: 0
  m_CorrespondingSourceObject: {fileID: 0}
  m_PrefabInstance: {fileID: 0}
  m_PrefabAsset: {fileID: 0}
  serializedVersion: 6
  m_Component:
  - component: {fileID: 402386}
  m_Layer: 0
  m_Name: VBOT_:LeftArm
  m_TagString: Untagged
  m_Icon: {fileID: 0}
  m_NavMeshLayer: 0
  m_StaticEditorFlags: 0
  m_IsActive: 1
--- !u!4 &402386
Transform:
  m_ObjectHideFlags: 0
  m_CorrespondingSourceObject: {fileID: 0}
  m_PrefabInstance: {fileID: 0}
  m_PrefabAsset: {fileID: 0}
  m_GameObject: {fileID: 143530}
  m_LocalRotation: {x: -0.1476417, y: 0.007941283, z: -0.00621769, w: 0.9889895}
  m_LocalPosition: {x: -0.00000041723249, y: 12.885075, z: 0.000009480863}
  m_LocalScale: {x: 0.9999999, y: 1.0000001, z: 1.0000001}
  m_Children:
  - {fileID: 430694}
  m_Father: {fileID: 445294}
  m_RootOrder: 0
  m_LocalEulerAnglesHint: {x: 0, y: 0, z: 0}
--- !u!1 &145918
GameObject:
  m_ObjectHideFlags: 0
  m_CorrespondingSourceObject: {fileID: 0}
  m_PrefabInstance: {fileID: 0}
  m_PrefabAsset: {fileID: 0}
  serializedVersion: 6
  m_Component:
  - component: {fileID: 450896}
  m_Layer: 0
  m_Name: VBOT_:RightHandRing1
  m_TagString: Untagged
  m_Icon: {fileID: 0}
  m_NavMeshLayer: 0
  m_StaticEditorFlags: 0
  m_IsActive: 1
--- !u!4 &450896
Transform:
  m_ObjectHideFlags: 0
  m_CorrespondingSourceObject: {fileID: 0}
  m_PrefabInstance: {fileID: 0}
  m_PrefabAsset: {fileID: 0}
  m_GameObject: {fileID: 145918}
  m_LocalRotation: {x: -0.0064634937, y: 0.0029677008, z: 0.052755825, w: 0.9985821}
  m_LocalPosition: {x: 1.0770532, y: 9.615877, z: -0.04499008}
  m_LocalScale: {x: 0.9999992, y: 0.99999964, z: 1}
  m_Children:
  - {fileID: 495558}
  m_Father: {fileID: 440192}
  m_RootOrder: 3
  m_LocalEulerAnglesHint: {x: 0, y: 0, z: 0}
--- !u!1 &146476
GameObject:
  m_ObjectHideFlags: 0
  m_CorrespondingSourceObject: {fileID: 0}
  m_PrefabInstance: {fileID: 0}
  m_PrefabAsset: {fileID: 0}
  serializedVersion: 6
  m_Component:
  - component: {fileID: 426282}
  m_Layer: 0
  m_Name: VBOT_:RightArm
  m_TagString: Untagged
  m_Icon: {fileID: 0}
  m_NavMeshLayer: 0
  m_StaticEditorFlags: 0
  m_IsActive: 1
--- !u!4 &426282
Transform:
  m_ObjectHideFlags: 0
  m_CorrespondingSourceObject: {fileID: 0}
  m_PrefabInstance: {fileID: 0}
  m_PrefabAsset: {fileID: 0}
  m_GameObject: {fileID: 146476}
  m_LocalRotation: {x: -0.14777023, y: -0.0063015977, z: 0.00074138155, w: 0.9890014}
  m_LocalPosition: {x: -0.0000004218891, y: 12.885061, z: -0.0000033304093}
  m_LocalScale: {x: 0.99999994, y: 0.99999934, z: 0.9999998}
  m_Children:
  - {fileID: 405084}
  m_Father: {fileID: 456678}
  m_RootOrder: 0
  m_LocalEulerAnglesHint: {x: 0, y: 0, z: 0}
--- !u!1 &148100
GameObject:
  m_ObjectHideFlags: 0
  m_CorrespondingSourceObject: {fileID: 0}
  m_PrefabInstance: {fileID: 0}
  m_PrefabAsset: {fileID: 0}
  serializedVersion: 6
  m_Component:
  - component: {fileID: 463416}
  m_Layer: 0
  m_Name: VBOT_:RightHandIndex1
  m_TagString: Untagged
  m_Icon: {fileID: 0}
  m_NavMeshLayer: 0
  m_StaticEditorFlags: 0
  m_IsActive: 1
--- !u!4 &463416
Transform:
  m_ObjectHideFlags: 0
  m_CorrespondingSourceObject: {fileID: 0}
  m_PrefabInstance: {fileID: 0}
  m_PrefabAsset: {fileID: 0}
  m_GameObject: {fileID: 148100}
  m_LocalRotation: {x: -0.006308148, y: 0.000009262221, z: 0.052337017, w: 0.9986096}
  m_LocalPosition: {x: -3.2609918, y: 10.302796, z: 0.20424767}
  m_LocalScale: {x: 1, y: 0.9999997, z: 0.99999976}
  m_Children:
  - {fileID: 494144}
  m_Father: {fileID: 440192}
  m_RootOrder: 0
  m_LocalEulerAnglesHint: {x: 0, y: 0, z: 0}
--- !u!1 &148122
GameObject:
  m_ObjectHideFlags: 0
  m_CorrespondingSourceObject: {fileID: 0}
  m_PrefabInstance: {fileID: 0}
  m_PrefabAsset: {fileID: 0}
  serializedVersion: 6
  m_Component:
  - component: {fileID: 499032}
  - component: {fileID: 13729644}
  m_Layer: 0
  m_Name: VBOT_:VBOT_LOD0
  m_TagString: Untagged
  m_Icon: {fileID: 0}
  m_NavMeshLayer: 0
  m_StaticEditorFlags: 0
  m_IsActive: 1
--- !u!4 &499032
Transform:
  m_ObjectHideFlags: 0
  m_CorrespondingSourceObject: {fileID: 0}
  m_PrefabInstance: {fileID: 0}
  m_PrefabAsset: {fileID: 0}
  m_GameObject: {fileID: 148122}
  m_LocalRotation: {x: 0.00000008122751, y: -0.0000000018335409, z: 1.1508664e-24,
    w: 1}
  m_LocalPosition: {x: 0, y: 0, z: 0}
  m_LocalScale: {x: 0.01, y: 0.009999999, z: 0.01}
  m_Children: []
  m_Father: {fileID: 458354}
  m_RootOrder: 0
  m_LocalEulerAnglesHint: {x: 0, y: 0, z: 0}
--- !u!137 &13729644
SkinnedMeshRenderer:
  m_ObjectHideFlags: 0
  m_CorrespondingSourceObject: {fileID: 0}
  m_PrefabInstance: {fileID: 0}
  m_PrefabAsset: {fileID: 0}
  m_GameObject: {fileID: 148122}
  m_Enabled: 1
  m_CastShadows: 1
  m_ReceiveShadows: 1
  m_DynamicOccludee: 1
  m_MotionVectors: 1
  m_LightProbeUsage: 1
  m_ReflectionProbeUsage: 1
  m_RenderingLayerMask: 1
  m_RendererPriority: 0
  m_Materials:
  - {fileID: 2100000, guid: 2fccb76f588d4d749928713d38489484, type: 2}
  - {fileID: 2100000, guid: df6e3b8b89f6ab04086bb67157f8e06e, type: 2}
  - {fileID: 2100000, guid: 33c350b6cd6102647be9afdfaec5b563, type: 2}
  - {fileID: 2100000, guid: 4a9aabb04c2af0e42a67b624135c49e7, type: 2}
  - {fileID: 2100000, guid: c90f59755f1461b4483f9f225b77813c, type: 2}
  - {fileID: 2100000, guid: f51c03443b297bb4a85e94d7738c2bb9, type: 2}
  - {fileID: 2100000, guid: a5e11a5a8f5eb46449d5ace6a06e4d54, type: 2}
  m_StaticBatchInfo:
    firstSubMesh: 0
    subMeshCount: 0
  m_StaticBatchRoot: {fileID: 0}
  m_ProbeAnchor: {fileID: 0}
  m_LightProbeVolumeOverride: {fileID: 0}
  m_ScaleInLightmap: 1
  m_PreserveUVs: 0
  m_IgnoreNormalsForChartDetection: 0
  m_ImportantGI: 0
  m_StitchLightmapSeams: 0
  m_SelectedEditorRenderState: 3
  m_MinimumChartSize: 4
  m_AutoUVMaxDistance: 0.5
  m_AutoUVMaxAngle: 89
  m_LightmapParameters: {fileID: 0}
  m_SortingLayerID: 0
  m_SortingLayer: 0
  m_SortingOrder: 0
  serializedVersion: 2
  m_Quality: 0
  m_UpdateWhenOffscreen: 0
  m_SkinnedMotionVectors: 1
  m_Mesh: {fileID: 4300006, guid: 340f99b8334a14c4a8a01dce6e1e5348, type: 3}
  m_Bones:
  - {fileID: 458192}
  - {fileID: 497430}
  - {fileID: 404340}
  - {fileID: 404408}
  - {fileID: 480034}
  - {fileID: 443502}
  - {fileID: 453176}
  - {fileID: 445294}
  - {fileID: 402386}
  - {fileID: 430694}
  - {fileID: 443944}
  - {fileID: 419186}
  - {fileID: 437342}
  - {fileID: 432302}
  - {fileID: 435832}
  - {fileID: 423342}
  - {fileID: 418808}
  - {fileID: 412180}
  - {fileID: 407454}
  - {fileID: 476544}
  - {fileID: 489164}
  - {fileID: 448698}
  - {fileID: 471958}
  - {fileID: 475332}
  - {fileID: 453074}
  - {fileID: 473768}
  - {fileID: 459428}
  - {fileID: 410072}
  - {fileID: 434540}
  - {fileID: 482446}
  - {fileID: 465784}
  - {fileID: 456678}
  - {fileID: 426282}
  - {fileID: 405084}
  - {fileID: 440192}
  - {fileID: 484674}
  - {fileID: 462714}
  - {fileID: 458272}
  - {fileID: 432512}
  - {fileID: 463416}
  - {fileID: 494144}
  - {fileID: 418374}
  - {fileID: 483756}
  - {fileID: 407132}
  - {fileID: 474282}
  - {fileID: 468218}
  - {fileID: 441240}
  - {fileID: 450896}
  - {fileID: 495558}
  - {fileID: 445622}
  - {fileID: 422112}
  - {fileID: 483450}
  - {fileID: 428214}
  - {fileID: 441212}
  - {fileID: 474624}
  - {fileID: 438746}
  - {fileID: 486260}
  - {fileID: 466264}
  - {fileID: 414652}
  - {fileID: 496616}
  - {fileID: 400738}
  - {fileID: 416608}
  - {fileID: 444884}
  - {fileID: 414890}
  - {fileID: 408318}
  m_BlendShapeWeights: []
  m_RootBone: {fileID: 458192}
  m_AABB:
    m_Center: {x: 0.004688263, y: -20.591595, z: 4.8472834}
    m_Extent: {x: 98.8893, y: 96.17589, z: 27.315811}
  m_DirtyAABB: 0
--- !u!1 &148850
GameObject:
  m_ObjectHideFlags: 0
  m_CorrespondingSourceObject: {fileID: 0}
  m_PrefabInstance: {fileID: 0}
  m_PrefabAsset: {fileID: 0}
  serializedVersion: 6
  m_Component:
  - component: {fileID: 469886}
  - component: {fileID: 9515052}
  - component: {fileID: 11452448}
  - component: {fileID: 11467016}
  - component: {fileID: 5456684}
  - component: {fileID: 13609524}
  m_Layer: 0
  m_Name: PlayerRig
  m_TagString: Player
  m_Icon: {fileID: 0}
  m_NavMeshLayer: 0
  m_StaticEditorFlags: 0
  m_IsActive: 1
--- !u!4 &469886
Transform:
  m_ObjectHideFlags: 0
  m_CorrespondingSourceObject: {fileID: 0}
  m_PrefabInstance: {fileID: 0}
  m_PrefabAsset: {fileID: 0}
  m_GameObject: {fileID: 148850}
  m_LocalRotation: {x: 0, y: 0, z: 0, w: 1}
  m_LocalPosition: {x: 0, y: 0, z: 0}
  m_LocalScale: {x: 1, y: 1, z: 1}
  m_Children:
  - {fileID: 498942}
  - {fileID: 458354}
  m_Father: {fileID: 0}
  m_RootOrder: 0
  m_LocalEulerAnglesHint: {x: 0, y: 0, z: 0}
--- !u!95 &9515052
Animator:
  serializedVersion: 3
  m_ObjectHideFlags: 0
  m_CorrespondingSourceObject: {fileID: 0}
  m_PrefabInstance: {fileID: 0}
  m_PrefabAsset: {fileID: 0}
  m_GameObject: {fileID: 148850}
  m_Enabled: 1
  m_Avatar: {fileID: 9000000, guid: 340f99b8334a14c4a8a01dce6e1e5348, type: 3}
  m_Controller: {fileID: 9100000, guid: 4eb84d25b3cf1104fa6406bdcdc62fb5, type: 2}
  m_CullingMode: 1
  m_UpdateMode: 0
  m_ApplyRootMotion: 1
  m_LinearVelocityBlending: 0
  m_WarningMessage: 
  m_HasTransformHierarchy: 1
  m_AllowConstantClipSamplingOptimization: 1
  m_KeepAnimatorControllerStateOnDisable: 0
--- !u!114 &11452448
MonoBehaviour:
  m_ObjectHideFlags: 0
  m_CorrespondingSourceObject: {fileID: 0}
  m_PrefabInstance: {fileID: 0}
  m_PrefabAsset: {fileID: 0}
  m_GameObject: {fileID: 148850}
  m_Enabled: 1
  m_EditorHideFlags: 0
  m_Script: {fileID: 11500000, guid: 73fbf3aa05f6be24780438449f505aa3, type: 3}
  m_Name: 
  m_EditorClassIdentifier: 
  groundLayer:
    serializedVersion: 2
    m_Bits: 1
  groundMinDistance: 0.2
  groundMaxDistance: 0.5
  locomotionType: 0
  lockMovement: 0
  freeRotationSpeed: 10
  strafeRotationSpeed: 10
  jumpAirControl: 1
  jumpTimer: 0.3
  jumpCounter: 0
  jumpForward: 3
  jumpHeight: 4
  useRootMotion: 0
  freeWalkSpeed: 2.5
  freeRunningSpeed: 3
  freeSprintSpeed: 4
  strafeWalkSpeed: 2.5
  strafeRunningSpeed: 3
  strafeSprintSpeed: 4
  stepOffsetEnd: 0.45
  stepOffsetStart: 0.05
  stepSmooth: 4
  slopeLimit: 45
  extraGravity: -10
  isGrounded: 0
  isStrafing: 0
  isSprinting: 0
  isSliding: 0
  isJumping: 0
  targetDirection: {x: 0, y: 0, z: 0}
  freeRotation: {x: 0, y: 0, z: 0, w: 0}
  keepDirection: 0
  animator: {fileID: 0}
  _rigidbody: {fileID: 0}
  maxFrictionPhysics: {fileID: 0}
  frictionPhysics: {fileID: 0}
  slippyPhysics: {fileID: 0}
  _capsuleCollider: {fileID: 0}
  colliderHeight: 0
  input: {x: 0, y: 0}
  speed: 0
  direction: 0
  verticalVelocity: 0
  velocity: 0
--- !u!114 &11467016
MonoBehaviour:
  m_ObjectHideFlags: 0
  m_CorrespondingSourceObject: {fileID: 0}
  m_PrefabInstance: {fileID: 0}
  m_PrefabAsset: {fileID: 0}
  m_GameObject: {fileID: 148850}
  m_Enabled: 1
  m_EditorHideFlags: 0
  m_Script: {fileID: 11500000, guid: 5deb9ff5611cb9d4596d397ac57ee8c7, type: 3}
  m_Name: 
  m_EditorClassIdentifier: 
  horizontalInput: Horizontal
  verticallInput: Vertical
  jumpInput: 32
  strafeInput: 9
  sprintInput: 304
  rotateCameraXInput: Mouse X
  rotateCameraYInput: Mouse Y
  customCameraState: 
  customlookAtPoint: 
  changeCameraState: 0
  smoothCameraState: 0
  keepDirection: 0
--- !u!54 &5456684
Rigidbody:
  m_ObjectHideFlags: 0
  m_CorrespondingSourceObject: {fileID: 0}
  m_PrefabInstance: {fileID: 0}
  m_PrefabAsset: {fileID: 0}
  m_GameObject: {fileID: 148850}
  serializedVersion: 2
  m_Mass: 50
  m_Drag: 0
  m_AngularDrag: 0.05
  m_UseGravity: 1
  m_IsKinematic: 0
  m_Interpolate: 0
  m_Constraints: 112
  m_CollisionDetection: 1
--- !u!136 &13609524
CapsuleCollider:
  m_ObjectHideFlags: 0
  m_CorrespondingSourceObject: {fileID: 0}
  m_PrefabInstance: {fileID: 0}
  m_PrefabAsset: {fileID: 0}
  m_GameObject: {fileID: 148850}
  m_Material: {fileID: 0}
  m_IsTrigger: 0
  m_Enabled: 1
  m_Radius: 0.3
  m_Height: 1.8
  m_Direction: 1
  m_Center: {x: 0, y: 0.9, z: 0}
--- !u!1 &151076
GameObject:
  m_ObjectHideFlags: 0
  m_CorrespondingSourceObject: {fileID: 0}
  m_PrefabInstance: {fileID: 0}
  m_PrefabAsset: {fileID: 0}
  serializedVersion: 6
  m_Component:
  - component: {fileID: 468218}
  m_Layer: 0
  m_Name: VBOT_:RightHandMiddle3
  m_TagString: Untagged
  m_Icon: {fileID: 0}
  m_NavMeshLayer: 0
  m_StaticEditorFlags: 0
  m_IsActive: 1
--- !u!4 &468218
Transform:
  m_ObjectHideFlags: 0
  m_CorrespondingSourceObject: {fileID: 0}
  m_PrefabInstance: {fileID: 0}
  m_PrefabAsset: {fileID: 0}
  m_GameObject: {fileID: 151076}
  m_LocalRotation: {x: -0.0000004923334, y: 0.000086348875, z: -0.001940938, w: 0.99999815}
  m_LocalPosition: {x: 0.0041791643, y: 3.861288, z: -0.000013139098}
  m_LocalScale: {x: 1, y: 1.0000007, z: 0.99999994}
  m_Children:
  - {fileID: 441240}
  m_Father: {fileID: 474282}
  m_RootOrder: 0
  m_LocalEulerAnglesHint: {x: 0, y: 0, z: 0}
--- !u!1 &151402
GameObject:
  m_ObjectHideFlags: 0
  m_CorrespondingSourceObject: {fileID: 0}
  m_PrefabInstance: {fileID: 0}
  m_PrefabAsset: {fileID: 0}
  serializedVersion: 6
  m_Component:
  - component: {fileID: 419108}
  m_Layer: 0
  m_Name: VBOT_:HeadTop_End_end
  m_TagString: Untagged
  m_Icon: {fileID: 0}
  m_NavMeshLayer: 0
  m_StaticEditorFlags: 0
  m_IsActive: 1
--- !u!4 &419108
Transform:
  m_ObjectHideFlags: 0
  m_CorrespondingSourceObject: {fileID: 0}
  m_PrefabInstance: {fileID: 0}
  m_PrefabAsset: {fileID: 0}
  m_GameObject: {fileID: 151402}
  m_LocalRotation: {x: 0, y: 0, z: 0, w: 1}
  m_LocalPosition: {x: -0, y: 22.191282, z: 0}
  m_LocalScale: {x: 1, y: 1, z: 1}
  m_Children: []
  m_Father: {fileID: 453176}
  m_RootOrder: 0
  m_LocalEulerAnglesHint: {x: 0, y: 0, z: 0}
--- !u!1 &154884
GameObject:
  m_ObjectHideFlags: 0
  m_CorrespondingSourceObject: {fileID: 0}
  m_PrefabInstance: {fileID: 0}
  m_PrefabAsset: {fileID: 0}
  serializedVersion: 6
  m_Component:
  - component: {fileID: 453074}
  m_Layer: 0
  m_Name: VBOT_:LeftHandRing2
  m_TagString: Untagged
  m_Icon: {fileID: 0}
  m_NavMeshLayer: 0
  m_StaticEditorFlags: 0
  m_IsActive: 1
--- !u!4 &453074
Transform:
  m_ObjectHideFlags: 0
  m_CorrespondingSourceObject: {fileID: 0}
  m_PrefabInstance: {fileID: 0}
  m_PrefabAsset: {fileID: 0}
  m_GameObject: {fileID: 154884}
  m_LocalRotation: {x: -0.0000003780744, y: -0.0000008826013, z: -0.00012194871, w: 1}
  m_LocalPosition: {x: 0.00056505756, y: 3.2887826, z: -0.00001606815}
  m_LocalScale: {x: 1, y: 0.9999999, z: 1.0000002}
  m_Children:
  - {fileID: 473768}
  m_Father: {fileID: 475332}
  m_RootOrder: 0
  m_LocalEulerAnglesHint: {x: 0, y: 0, z: 0}
--- !u!1 &156286
GameObject:
  m_ObjectHideFlags: 0
  m_CorrespondingSourceObject: {fileID: 0}
  m_PrefabInstance: {fileID: 0}
  m_PrefabAsset: {fileID: 0}
  serializedVersion: 6
  m_Component:
  - component: {fileID: 432512}
  m_Layer: 0
  m_Name: VBOT_:RightHandThumb4
  m_TagString: Untagged
  m_Icon: {fileID: 0}
  m_NavMeshLayer: 0
  m_StaticEditorFlags: 0
  m_IsActive: 1
--- !u!4 &432512
Transform:
  m_ObjectHideFlags: 0
  m_CorrespondingSourceObject: {fileID: 0}
  m_PrefabInstance: {fileID: 0}
  m_PrefabAsset: {fileID: 0}
  m_GameObject: {fileID: 156286}
  m_LocalRotation: {x: -0.000000001862645, y: -0.0000000037252899, z: 0.000000028870998,
    w: 1}
  m_LocalPosition: {x: -0.18034028, y: 3.4578032, z: -0.00000989437}
  m_LocalScale: {x: 1.0000001, y: 1, z: 1}
  m_Children:
  - {fileID: 437776}
  m_Father: {fileID: 458272}
  m_RootOrder: 0
  m_LocalEulerAnglesHint: {x: 0, y: 0, z: 0}
--- !u!1 &157418
GameObject:
  m_ObjectHideFlags: 0
  m_CorrespondingSourceObject: {fileID: 0}
  m_PrefabInstance: {fileID: 0}
  m_PrefabAsset: {fileID: 0}
  serializedVersion: 6
  m_Component:
  - component: {fileID: 408318}
  m_Layer: 0
  m_Name: VBOT_:RightToe_End
  m_TagString: Untagged
  m_Icon: {fileID: 0}
  m_NavMeshLayer: 0
  m_StaticEditorFlags: 0
  m_IsActive: 1
--- !u!4 &408318
Transform:
  m_ObjectHideFlags: 0
  m_CorrespondingSourceObject: {fileID: 0}
  m_PrefabInstance: {fileID: 0}
  m_PrefabAsset: {fileID: 0}
  m_GameObject: {fileID: 157418}
  m_LocalRotation: {x: -0.000000027357602, y: 0.000034474506, z: -0.0000000888831,
    w: 1}
  m_LocalPosition: {x: 0.000000996515, y: 6.241361, z: -0.00000017881392}
  m_LocalScale: {x: 1, y: 1, z: 0.99999994}
  m_Children:
  - {fileID: 403724}
  m_Father: {fileID: 414890}
  m_RootOrder: 0
  m_LocalEulerAnglesHint: {x: 0, y: 0, z: 0}
--- !u!1 &157608
GameObject:
  m_ObjectHideFlags: 0
  m_CorrespondingSourceObject: {fileID: 0}
  m_PrefabInstance: {fileID: 0}
  m_PrefabAsset: {fileID: 0}
  serializedVersion: 6
  m_Component:
  - component: {fileID: 474282}
  m_Layer: 0
  m_Name: VBOT_:RightHandMiddle2
  m_TagString: Untagged
  m_Icon: {fileID: 0}
  m_NavMeshLayer: 0
  m_StaticEditorFlags: 0
  m_IsActive: 1
--- !u!4 &474282
Transform:
  m_ObjectHideFlags: 0
  m_CorrespondingSourceObject: {fileID: 0}
  m_PrefabInstance: {fileID: 0}
  m_PrefabAsset: {fileID: 0}
  m_GameObject: {fileID: 157608}
  m_LocalRotation: {x: -0.0000010921335, y: -0.000014545862, z: -0.00018764834, w: 1}
  m_LocalPosition: {x: 0.006039291, y: 4.100815, z: 0.000013880431}
  m_LocalScale: {x: 1, y: 0.9999995, z: 0.9999998}
  m_Children:
  - {fileID: 468218}
  m_Father: {fileID: 407132}
  m_RootOrder: 0
  m_LocalEulerAnglesHint: {x: 0, y: 0, z: 0}
--- !u!1 &158114
GameObject:
  m_ObjectHideFlags: 0
  m_CorrespondingSourceObject: {fileID: 0}
  m_PrefabInstance: {fileID: 0}
  m_PrefabAsset: {fileID: 0}
  serializedVersion: 6
  m_Component:
  - component: {fileID: 422112}
  m_Layer: 0
  m_Name: VBOT_:RightHandRing4
  m_TagString: Untagged
  m_Icon: {fileID: 0}
  m_NavMeshLayer: 0
  m_StaticEditorFlags: 0
  m_IsActive: 1
--- !u!4 &422112
Transform:
  m_ObjectHideFlags: 0
  m_CorrespondingSourceObject: {fileID: 0}
  m_PrefabInstance: {fileID: 0}
  m_PrefabAsset: {fileID: 0}
  m_GameObject: {fileID: 158114}
  m_LocalRotation: {x: -0.000000040627246, y: -0.000000007421774, z: 0.0000000014611032,
    w: 1}
  m_LocalPosition: {x: -0.000018931923, y: 3.1309967, z: -0.000009484588}
  m_LocalScale: {x: 1, y: 1, z: 0.99999994}
  m_Children:
  - {fileID: 470652}
  m_Father: {fileID: 445622}
  m_RootOrder: 0
  m_LocalEulerAnglesHint: {x: 0, y: 0, z: 0}
--- !u!1 &159076
GameObject:
  m_ObjectHideFlags: 0
  m_CorrespondingSourceObject: {fileID: 0}
  m_PrefabInstance: {fileID: 0}
  m_PrefabAsset: {fileID: 0}
  serializedVersion: 6
  m_Component:
  - component: {fileID: 410072}
  m_Layer: 0
  m_Name: VBOT_:LeftHandPinky1
  m_TagString: Untagged
  m_Icon: {fileID: 0}
  m_NavMeshLayer: 0
  m_StaticEditorFlags: 0
  m_IsActive: 1
--- !u!4 &410072
Transform:
  m_ObjectHideFlags: 0
  m_CorrespondingSourceObject: {fileID: 0}
  m_PrefabInstance: {fileID: 0}
  m_PrefabAsset: {fileID: 0}
  m_GameObject: {fileID: 159076}
  m_LocalRotation: {x: -0.0004632812, y: 0.0018745903, z: -0.05825882, w: 0.99829966}
  m_LocalPosition: {x: -3.1376708, y: 9.433374, z: 0.09271452}
  m_LocalScale: {x: 0.99999994, y: 0.9999999, z: 0.99999994}
  m_Children:
  - {fileID: 434540}
  m_Father: {fileID: 443944}
  m_RootOrder: 2
  m_LocalEulerAnglesHint: {x: 0, y: 0, z: 0}
--- !u!1 &159206
GameObject:
  m_ObjectHideFlags: 0
  m_CorrespondingSourceObject: {fileID: 0}
  m_PrefabInstance: {fileID: 0}
  m_PrefabAsset: {fileID: 0}
  serializedVersion: 6
  m_Component:
  - component: {fileID: 440192}
  m_Layer: 0
  m_Name: VBOT_:RightHand
  m_TagString: Untagged
  m_Icon: {fileID: 0}
  m_NavMeshLayer: 0
  m_StaticEditorFlags: 0
  m_IsActive: 1
--- !u!4 &440192
Transform:
  m_ObjectHideFlags: 0
  m_CorrespondingSourceObject: {fileID: 0}
  m_PrefabInstance: {fileID: 0}
  m_PrefabAsset: {fileID: 0}
  m_GameObject: {fileID: 159206}
  m_LocalRotation: {x: 0.0051883897, y: 0.021200966, z: -0.052770805, w: 0.9983681}
  m_LocalPosition: {x: 0.00000020841252, y: 29.88406, z: 0.000014346092}
  m_LocalScale: {x: 1.0000007, y: 1, z: 1}
  m_Children:
  - {fileID: 463416}
  - {fileID: 407132}
  - {fileID: 483450}
  - {fileID: 450896}
  - {fileID: 484674}
  m_Father: {fileID: 405084}
  m_RootOrder: 0
  m_LocalEulerAnglesHint: {x: 0, y: 0, z: 0}
--- !u!1 &159484
GameObject:
  m_ObjectHideFlags: 0
  m_CorrespondingSourceObject: {fileID: 0}
  m_PrefabInstance: {fileID: 0}
  m_PrefabAsset: {fileID: 0}
  serializedVersion: 6
  m_Component:
  - component: {fileID: 407454}
  m_Layer: 0
  m_Name: VBOT_:LeftHandIndex4
  m_TagString: Untagged
  m_Icon: {fileID: 0}
  m_NavMeshLayer: 0
  m_StaticEditorFlags: 0
  m_IsActive: 1
--- !u!4 &407454
Transform:
  m_ObjectHideFlags: 0
  m_CorrespondingSourceObject: {fileID: 0}
  m_PrefabInstance: {fileID: 0}
  m_PrefabAsset: {fileID: 0}
  m_GameObject: {fileID: 159484}
  m_LocalRotation: {x: -0.00000008045498, y: 2.508182e-10, z: -5.8730437e-10, w: 1}
  m_LocalPosition: {x: 0.0012805796, y: 3.0745363, z: -0.000006300746}
  m_LocalScale: {x: 1, y: 1, z: 1}
  m_Children:
  - {fileID: 487280}
  m_Father: {fileID: 412180}
  m_RootOrder: 0
  m_LocalEulerAnglesHint: {x: 0, y: 0, z: 0}
--- !u!1 &159968
GameObject:
  m_ObjectHideFlags: 0
  m_CorrespondingSourceObject: {fileID: 0}
  m_PrefabInstance: {fileID: 0}
  m_PrefabAsset: {fileID: 0}
  serializedVersion: 6
  m_Component:
  - component: {fileID: 466264}
  m_Layer: 0
  m_Name: VBOT_:LeftFoot
  m_TagString: Untagged
  m_Icon: {fileID: 0}
  m_NavMeshLayer: 0
  m_StaticEditorFlags: 0
  m_IsActive: 1
--- !u!4 &466264
Transform:
  m_ObjectHideFlags: 0
  m_CorrespondingSourceObject: {fileID: 0}
  m_PrefabInstance: {fileID: 0}
  m_PrefabAsset: {fileID: 0}
  m_GameObject: {fileID: 159968}
  m_LocalRotation: {x: 0.48034218, y: -0.0065366975, z: -0.0049221627, w: 0.877043}
  m_LocalPosition: {x: 0.00000043968427, y: 42.52575, z: 0.0000009657814}
  m_LocalScale: {x: 1.0000001, y: 1, z: 1.0000004}
  m_Children:
  - {fileID: 414652}
  m_Father: {fileID: 486260}
  m_RootOrder: 0
  m_LocalEulerAnglesHint: {x: 0, y: 0, z: 0}
--- !u!1 &160636
GameObject:
  m_ObjectHideFlags: 0
  m_CorrespondingSourceObject: {fileID: 0}
  m_PrefabInstance: {fileID: 0}
  m_PrefabAsset: {fileID: 0}
  serializedVersion: 6
  m_Component:
  - component: {fileID: 437776}
  m_Layer: 0
  m_Name: VBOT_:RightHandThumb4_end
  m_TagString: Untagged
  m_Icon: {fileID: 0}
  m_NavMeshLayer: 0
  m_StaticEditorFlags: 0
  m_IsActive: 1
--- !u!4 &437776
Transform:
  m_ObjectHideFlags: 0
  m_CorrespondingSourceObject: {fileID: 0}
  m_PrefabInstance: {fileID: 0}
  m_PrefabAsset: {fileID: 0}
  m_GameObject: {fileID: 160636}
  m_LocalRotation: {x: 0, y: 0, z: 0, w: 1}
  m_LocalPosition: {x: -0, y: 3.4625075, z: 0}
  m_LocalScale: {x: 1, y: 1, z: 1}
  m_Children: []
  m_Father: {fileID: 432512}
  m_RootOrder: 0
  m_LocalEulerAnglesHint: {x: 0, y: 0, z: 0}
--- !u!1 &162994
GameObject:
  m_ObjectHideFlags: 0
  m_CorrespondingSourceObject: {fileID: 0}
  m_PrefabInstance: {fileID: 0}
  m_PrefabAsset: {fileID: 0}
  serializedVersion: 6
  m_Component:
  - component: {fileID: 441212}
  m_Layer: 0
  m_Name: VBOT_:RightHandPinky3
  m_TagString: Untagged
  m_Icon: {fileID: 0}
  m_NavMeshLayer: 0
  m_StaticEditorFlags: 0
  m_IsActive: 1
--- !u!4 &441212
Transform:
  m_ObjectHideFlags: 0
  m_CorrespondingSourceObject: {fileID: 0}
  m_PrefabInstance: {fileID: 0}
  m_PrefabAsset: {fileID: 0}
  m_GameObject: {fileID: 162994}
  m_LocalRotation: {x: 0.0000013946006, y: 0.00000016396328, z: -0.000073763025, w: 1}
  m_LocalPosition: {x: 0.00017850239, y: 2.8926263, z: -0.0000014435499}
  m_LocalScale: {x: 1.0000001, y: 1.0000004, z: 1.0000002}
  m_Children:
  - {fileID: 474624}
  m_Father: {fileID: 428214}
  m_RootOrder: 0
  m_LocalEulerAnglesHint: {x: 0, y: 0, z: 0}
--- !u!1 &163596
GameObject:
  m_ObjectHideFlags: 0
  m_CorrespondingSourceObject: {fileID: 0}
  m_PrefabInstance: {fileID: 0}
  m_PrefabAsset: {fileID: 0}
  serializedVersion: 6
  m_Component:
  - component: {fileID: 486260}
  m_Layer: 0
  m_Name: VBOT_:LeftLeg
  m_TagString: Untagged
  m_Icon: {fileID: 0}
  m_NavMeshLayer: 0
  m_StaticEditorFlags: 0
  m_IsActive: 1
--- !u!4 &486260
Transform:
  m_ObjectHideFlags: 0
  m_CorrespondingSourceObject: {fileID: 0}
  m_PrefabInstance: {fileID: 0}
  m_PrefabAsset: {fileID: 0}
  m_GameObject: {fileID: 163596}
  m_LocalRotation: {x: -0.045484938, y: -0.0005017409, z: 0.01265651, w: 0.99888474}
  m_LocalPosition: {x: 0.0000013736861, y: 46.4423, z: -0.00000012147937}
  m_LocalScale: {x: 0.9999995, y: 0.9999993, z: 0.99999976}
  m_Children:
  - {fileID: 466264}
  m_Father: {fileID: 438746}
  m_RootOrder: 0
  m_LocalEulerAnglesHint: {x: 0, y: 0, z: 0}
--- !u!1 &164384
GameObject:
  m_ObjectHideFlags: 0
  m_CorrespondingSourceObject: {fileID: 0}
  m_PrefabInstance: {fileID: 0}
  m_PrefabAsset: {fileID: 0}
  serializedVersion: 6
  m_Component:
  - component: {fileID: 400738}
  m_Layer: 0
  m_Name: VBOT_:RightUpLeg
  m_TagString: Untagged
  m_Icon: {fileID: 0}
  m_NavMeshLayer: 0
  m_StaticEditorFlags: 0
  m_IsActive: 1
--- !u!4 &400738
Transform:
  m_ObjectHideFlags: 0
  m_CorrespondingSourceObject: {fileID: 0}
  m_PrefabInstance: {fileID: 0}
  m_PrefabAsset: {fileID: 0}
  m_GameObject: {fileID: 164384}
  m_LocalRotation: {x: 0.00000074489566, y: 0.006958819, z: 0.99995744, w: -0.006058274}
  m_LocalPosition: {x: 10.920648, y: -5.3976483, z: 1.6830438}
  m_LocalScale: {x: 1.0005851, y: 0.99999964, z: 1.0000213}
  m_Children:
  - {fileID: 416608}
  m_Father: {fileID: 458192}
  m_RootOrder: 1
  m_LocalEulerAnglesHint: {x: 0, y: 0, z: 0}
--- !u!1 &167582
GameObject:
  m_ObjectHideFlags: 0
  m_CorrespondingSourceObject: {fileID: 0}
  m_PrefabInstance: {fileID: 0}
  m_PrefabAsset: {fileID: 0}
  serializedVersion: 6
  m_Component:
  - component: {fileID: 483756}
  m_Layer: 0
  m_Name: VBOT_:RightHandIndex4
  m_TagString: Untagged
  m_Icon: {fileID: 0}
  m_NavMeshLayer: 0
  m_StaticEditorFlags: 0
  m_IsActive: 1
--- !u!4 &483756
Transform:
  m_ObjectHideFlags: 0
  m_CorrespondingSourceObject: {fileID: 0}
  m_PrefabInstance: {fileID: 0}
  m_PrefabAsset: {fileID: 0}
  m_GameObject: {fileID: 167582}
  m_LocalRotation: {x: 0.00000000842556, y: 0.000000092695934, z: 0.00000008829295,
    w: 1}
  m_LocalPosition: {x: 0.008346348, y: 2.918003, z: -0.0000014519318}
  m_LocalScale: {x: 1, y: 0.99999994, z: 0.99999994}
  m_Children:
  - {fileID: 468624}
  m_Father: {fileID: 418374}
  m_RootOrder: 0
  m_LocalEulerAnglesHint: {x: 0, y: 0, z: 0}
--- !u!1 &168008
GameObject:
  m_ObjectHideFlags: 0
  m_CorrespondingSourceObject: {fileID: 0}
  m_PrefabInstance: {fileID: 0}
  m_PrefabAsset: {fileID: 0}
  serializedVersion: 6
  m_Component:
  - component: {fileID: 488618}
  m_Layer: 0
  m_Name: VBOT_:RightHandPinky4_end
  m_TagString: Untagged
  m_Icon: {fileID: 0}
  m_NavMeshLayer: 0
  m_StaticEditorFlags: 0
  m_IsActive: 1
--- !u!4 &488618
Transform:
  m_ObjectHideFlags: 0
  m_CorrespondingSourceObject: {fileID: 0}
  m_PrefabInstance: {fileID: 0}
  m_PrefabAsset: {fileID: 0}
  m_GameObject: {fileID: 168008}
  m_LocalRotation: {x: 0, y: 0, z: 0, w: 1}
  m_LocalPosition: {x: -0, y: 2.562149, z: 0}
  m_LocalScale: {x: 1, y: 1, z: 1}
  m_Children: []
  m_Father: {fileID: 474624}
  m_RootOrder: 0
  m_LocalEulerAnglesHint: {x: 0, y: 0, z: 0}
--- !u!1 &169040
GameObject:
  m_ObjectHideFlags: 0
  m_CorrespondingSourceObject: {fileID: 0}
  m_PrefabInstance: {fileID: 0}
  m_PrefabAsset: {fileID: 0}
  serializedVersion: 6
  m_Component:
  - component: {fileID: 471958}
  m_Layer: 0
  m_Name: VBOT_:LeftHandMiddle4
  m_TagString: Untagged
  m_Icon: {fileID: 0}
  m_NavMeshLayer: 0
  m_StaticEditorFlags: 0
  m_IsActive: 1
--- !u!4 &471958
Transform:
  m_ObjectHideFlags: 0
  m_CorrespondingSourceObject: {fileID: 0}
  m_PrefabInstance: {fileID: 0}
  m_PrefabAsset: {fileID: 0}
  m_GameObject: {fileID: 169040}
  m_LocalRotation: {x: 0.00000005096203, y: -1.3542201e-10, z: -0.0000000016708129,
    w: 1}
  m_LocalPosition: {x: 0.0024477316, y: 3.6274889, z: -0.0000036316922}
  m_LocalScale: {x: 1, y: 1.0000001, z: 1}
  m_Children:
  - {fileID: 498618}
  m_Father: {fileID: 448698}
  m_RootOrder: 0
  m_LocalEulerAnglesHint: {x: 0, y: 0, z: 0}
--- !u!1 &170332
GameObject:
  m_ObjectHideFlags: 0
  m_CorrespondingSourceObject: {fileID: 0}
  m_PrefabInstance: {fileID: 0}
  m_PrefabAsset: {fileID: 0}
  serializedVersion: 6
  m_Component:
  - component: {fileID: 458354}
  - component: {fileID: 20504800}
  m_Layer: 0
  m_Name: Mesh_LOD
  m_TagString: Player
  m_Icon: {fileID: 0}
  m_NavMeshLayer: 0
  m_StaticEditorFlags: 0
  m_IsActive: 1
--- !u!4 &458354
Transform:
  m_ObjectHideFlags: 0
  m_CorrespondingSourceObject: {fileID: 0}
  m_PrefabInstance: {fileID: 0}
  m_PrefabAsset: {fileID: 0}
  m_GameObject: {fileID: 170332}
  m_LocalRotation: {x: 0, y: 0, z: 0, w: 1}
  m_LocalPosition: {x: 0, y: 0, z: 0}
  m_LocalScale: {x: 1, y: 1, z: 1}
  m_Children:
  - {fileID: 499032}
  - {fileID: 473694}
  - {fileID: 430730}
  - {fileID: 457436}
  m_Father: {fileID: 469886}
  m_RootOrder: 1
  m_LocalEulerAnglesHint: {x: 0, y: 0, z: 0}
--- !u!205 &20504800
LODGroup:
  m_ObjectHideFlags: 0
  m_CorrespondingSourceObject: {fileID: 0}
  m_PrefabInstance: {fileID: 0}
  m_PrefabAsset: {fileID: 0}
  m_GameObject: {fileID: 170332}
  serializedVersion: 2
  m_LocalReferencePoint: {x: 0.000082969666, y: 0.8432497, z: 0.039733708}
  m_Size: 1.9796741
  m_FadeMode: 0
  m_AnimateCrossFading: 0
  m_LastLODIsBillboard: 0
  m_LODs:
  - screenRelativeHeight: 0.69752145
    fadeTransitionWidth: 0
    renderers:
    - renderer: {fileID: 13729644}
  - screenRelativeHeight: 0.39740333
    fadeTransitionWidth: 0
    renderers:
    - renderer: {fileID: 13747300}
  - screenRelativeHeight: 0.1990043
    fadeTransitionWidth: 0
    renderers:
    - renderer: {fileID: 13708090}
  - screenRelativeHeight: 0.050290737
    fadeTransitionWidth: 0
    renderers:
    - renderer: {fileID: 13713688}
  m_Enabled: 1
--- !u!1 &172378
GameObject:
  m_ObjectHideFlags: 0
  m_CorrespondingSourceObject: {fileID: 0}
  m_PrefabInstance: {fileID: 0}
  m_PrefabAsset: {fileID: 0}
  serializedVersion: 6
  m_Component:
  - component: {fileID: 498618}
  m_Layer: 0
  m_Name: VBOT_:LeftHandMiddle4_end
  m_TagString: Untagged
  m_Icon: {fileID: 0}
  m_NavMeshLayer: 0
  m_StaticEditorFlags: 0
  m_IsActive: 1
--- !u!4 &498618
Transform:
  m_ObjectHideFlags: 0
  m_CorrespondingSourceObject: {fileID: 0}
  m_PrefabInstance: {fileID: 0}
  m_PrefabAsset: {fileID: 0}
  m_GameObject: {fileID: 172378}
  m_LocalRotation: {x: 0, y: 0, z: 0, w: 1}
  m_LocalPosition: {x: -0, y: 3.6274853, z: 0}
  m_LocalScale: {x: 1, y: 1, z: 1}
  m_Children: []
  m_Father: {fileID: 471958}
  m_RootOrder: 0
  m_LocalEulerAnglesHint: {x: 0, y: 0, z: 0}
--- !u!1 &174912
GameObject:
  m_ObjectHideFlags: 0
  m_CorrespondingSourceObject: {fileID: 0}
  m_PrefabInstance: {fileID: 0}
  m_PrefabAsset: {fileID: 0}
  serializedVersion: 6
  m_Component:
  - component: {fileID: 456678}
  m_Layer: 0
  m_Name: VBOT_:RightShoulder
  m_TagString: Untagged
  m_Icon: {fileID: 0}
  m_NavMeshLayer: 0
  m_StaticEditorFlags: 0
  m_IsActive: 1
--- !u!4 &456678
Transform:
  m_ObjectHideFlags: 0
  m_CorrespondingSourceObject: {fileID: 0}
  m_PrefabInstance: {fileID: 0}
  m_PrefabAsset: {fileID: 0}
  m_GameObject: {fileID: 174912}
  m_LocalRotation: {x: 0.56846106, y: 0.42061523, z: -0.5682299, w: 0.42077276}
  m_LocalPosition: {x: 6.2330184, y: 12.722447, z: 0.0031886697}
  m_LocalScale: {x: 0.9999998, y: 1.0000004, z: 0.9999994}
  m_Children:
  - {fileID: 426282}
  m_Father: {fileID: 404408}
  m_RootOrder: 2
  m_LocalEulerAnglesHint: {x: 0, y: 0, z: 0}
--- !u!1 &176796
GameObject:
  m_ObjectHideFlags: 0
  m_CorrespondingSourceObject: {fileID: 0}
  m_PrefabInstance: {fileID: 0}
  m_PrefabAsset: {fileID: 0}
  serializedVersion: 6
  m_Component:
  - component: {fileID: 418374}
  m_Layer: 0
  m_Name: VBOT_:RightHandIndex3
  m_TagString: Untagged
  m_Icon: {fileID: 0}
  m_NavMeshLayer: 0
  m_StaticEditorFlags: 0
  m_IsActive: 1
--- !u!4 &418374
Transform:
  m_ObjectHideFlags: 0
  m_CorrespondingSourceObject: {fileID: 0}
  m_PrefabInstance: {fileID: 0}
  m_PrefabAsset: {fileID: 0}
  m_GameObject: {fileID: 176796}
  m_LocalRotation: {x: -0.00000062817367, y: 0.000036295332, z: 0.002351098, w: 0.99999726}
  m_LocalPosition: {x: -0.006155073, y: 3.336971, z: 0.0000052740793}
  m_LocalScale: {x: 0.99999994, y: 1.0000004, z: 1}
  m_Children:
  - {fileID: 483756}
  m_Father: {fileID: 494144}
  m_RootOrder: 0
  m_LocalEulerAnglesHint: {x: 0, y: 0, z: 0}
--- !u!1 &177100
GameObject:
  m_ObjectHideFlags: 0
  m_CorrespondingSourceObject: {fileID: 0}
  m_PrefabInstance: {fileID: 0}
  m_PrefabAsset: {fileID: 0}
  serializedVersion: 6
  m_Component:
  - component: {fileID: 434540}
  m_Layer: 0
  m_Name: VBOT_:LeftHandPinky2
  m_TagString: Untagged
  m_Icon: {fileID: 0}
  m_NavMeshLayer: 0
  m_StaticEditorFlags: 0
  m_IsActive: 1
--- !u!4 &434540
Transform:
  m_ObjectHideFlags: 0
  m_CorrespondingSourceObject: {fileID: 0}
  m_PrefabInstance: {fileID: 0}
  m_PrefabAsset: {fileID: 0}
  m_GameObject: {fileID: 177100}
  m_LocalRotation: {x: -0.0000011046868, y: 0.000015655518, z: 0.0005995122, w: 0.9999998}
  m_LocalPosition: {x: -0.0039647813, y: 3.2343886, z: -0.000012723379}
  m_LocalScale: {x: 1.0000001, y: 0.9999998, z: 0.9999997}
  m_Children:
  - {fileID: 482446}
  m_Father: {fileID: 410072}
  m_RootOrder: 0
  m_LocalEulerAnglesHint: {x: 0, y: 0, z: 0}
--- !u!1 &177262
GameObject:
  m_ObjectHideFlags: 0
  m_CorrespondingSourceObject: {fileID: 0}
  m_PrefabInstance: {fileID: 0}
  m_PrefabAsset: {fileID: 0}
  serializedVersion: 6
  m_Component:
  - component: {fileID: 487280}
  m_Layer: 0
  m_Name: VBOT_:LeftHandIndex4_end
  m_TagString: Untagged
  m_Icon: {fileID: 0}
  m_NavMeshLayer: 0
  m_StaticEditorFlags: 0
  m_IsActive: 1
--- !u!4 &487280
Transform:
  m_ObjectHideFlags: 0
  m_CorrespondingSourceObject: {fileID: 0}
  m_PrefabInstance: {fileID: 0}
  m_PrefabAsset: {fileID: 0}
  m_GameObject: {fileID: 177262}
  m_LocalRotation: {x: 0, y: 0, z: 0, w: 1}
  m_LocalPosition: {x: -0, y: 3.07454, z: 0}
  m_LocalScale: {x: 1, y: 1, z: 1}
  m_Children: []
  m_Father: {fileID: 407454}
  m_RootOrder: 0
  m_LocalEulerAnglesHint: {x: 0, y: 0, z: 0}
--- !u!1 &178376
GameObject:
  m_ObjectHideFlags: 0
  m_CorrespondingSourceObject: {fileID: 0}
  m_PrefabInstance: {fileID: 0}
  m_PrefabAsset: {fileID: 0}
  serializedVersion: 6
  m_Component:
  - component: {fileID: 470652}
  m_Layer: 0
  m_Name: VBOT_:RightHandRing4_end
  m_TagString: Untagged
  m_Icon: {fileID: 0}
  m_NavMeshLayer: 0
  m_StaticEditorFlags: 0
  m_IsActive: 1
--- !u!4 &470652
Transform:
  m_ObjectHideFlags: 0
  m_CorrespondingSourceObject: {fileID: 0}
  m_PrefabInstance: {fileID: 0}
  m_PrefabAsset: {fileID: 0}
  m_GameObject: {fileID: 178376}
  m_LocalRotation: {x: 0, y: 0, z: 0, w: 1}
  m_LocalPosition: {x: -0, y: 3.1309974, z: 0}
  m_LocalScale: {x: 1, y: 1, z: 1}
  m_Children: []
  m_Father: {fileID: 422112}
  m_RootOrder: 0
  m_LocalEulerAnglesHint: {x: 0, y: 0, z: 0}
--- !u!1 &180294
GameObject:
  m_ObjectHideFlags: 0
  m_CorrespondingSourceObject: {fileID: 0}
  m_PrefabInstance: {fileID: 0}
  m_PrefabAsset: {fileID: 0}
  serializedVersion: 6
  m_Component:
  - component: {fileID: 465784}
  m_Layer: 0
  m_Name: VBOT_:LeftHandPinky4
  m_TagString: Untagged
  m_Icon: {fileID: 0}
  m_NavMeshLayer: 0
  m_StaticEditorFlags: 0
  m_IsActive: 1
--- !u!4 &465784
Transform:
  m_ObjectHideFlags: 0
  m_CorrespondingSourceObject: {fileID: 0}
  m_PrefabInstance: {fileID: 0}
  m_PrefabAsset: {fileID: 0}
  m_GameObject: {fileID: 180294}
  m_LocalRotation: {x: 0.0000000027521878, y: -9.31788e-10, z: -0.000000019734088,
    w: 1}
  m_LocalPosition: {x: 0.004042044, y: 2.2874355, z: 0.0000013776297}
  m_LocalScale: {x: 1, y: 1, z: 1}
  m_Children:
  - {fileID: 458094}
  m_Father: {fileID: 482446}
  m_RootOrder: 0
  m_LocalEulerAnglesHint: {x: 0, y: 0, z: 0}
--- !u!1 &182376
GameObject:
  m_ObjectHideFlags: 0
  m_CorrespondingSourceObject: {fileID: 0}
  m_PrefabInstance: {fileID: 0}
  m_PrefabAsset: {fileID: 0}
  serializedVersion: 6
  m_Component:
  - component: {fileID: 432302}
  m_Layer: 0
  m_Name: VBOT_:LeftHandThumb3
  m_TagString: Untagged
  m_Icon: {fileID: 0}
  m_NavMeshLayer: 0
  m_StaticEditorFlags: 0
  m_IsActive: 1
--- !u!4 &432302
Transform:
  m_ObjectHideFlags: 0
  m_CorrespondingSourceObject: {fileID: 0}
  m_PrefabInstance: {fileID: 0}
  m_PrefabAsset: {fileID: 0}
  m_GameObject: {fileID: 182376}
  m_LocalRotation: {x: -0.00010924415, y: -0.0015527824, z: -0.035468064, w: 0.9993696}
  m_LocalPosition: {x: 0.37320492, y: 3.4936538, z: 0.00000017881392}
  m_LocalScale: {x: 1, y: 0.9999999, z: 0.99999946}
  m_Children:
  - {fileID: 435832}
  m_Father: {fileID: 437342}
  m_RootOrder: 0
  m_LocalEulerAnglesHint: {x: 0, y: 0, z: 0}
--- !u!1 &183566
GameObject:
  m_ObjectHideFlags: 0
  m_CorrespondingSourceObject: {fileID: 0}
  m_PrefabInstance: {fileID: 0}
  m_PrefabAsset: {fileID: 0}
  serializedVersion: 6
  m_Component:
  - component: {fileID: 482446}
  m_Layer: 0
  m_Name: VBOT_:LeftHandPinky3
  m_TagString: Untagged
  m_Icon: {fileID: 0}
  m_NavMeshLayer: 0
  m_StaticEditorFlags: 0
  m_IsActive: 1
--- !u!4 &482446
Transform:
  m_ObjectHideFlags: 0
  m_CorrespondingSourceObject: {fileID: 0}
  m_PrefabInstance: {fileID: 0}
  m_PrefabAsset: {fileID: 0}
  m_GameObject: {fileID: 183566}
  m_LocalRotation: {x: -0.00000036671616, y: 0.00006196149, z: 0.00089296716, w: 0.99999964}
  m_LocalPosition: {x: -0.00007703411, y: 2.6718638, z: 0.000018784818}
  m_LocalScale: {x: 0.9999999, y: 1.0000007, z: 1.0000002}
  m_Children:
  - {fileID: 465784}
  m_Father: {fileID: 434540}
  m_RootOrder: 0
  m_LocalEulerAnglesHint: {x: 0, y: 0, z: 0}
--- !u!1 &184430
GameObject:
  m_ObjectHideFlags: 0
  m_CorrespondingSourceObject: {fileID: 0}
  m_PrefabInstance: {fileID: 0}
  m_PrefabAsset: {fileID: 0}
  serializedVersion: 6
  m_Component:
  - component: {fileID: 474624}
  m_Layer: 0
  m_Name: VBOT_:RightHandPinky4
  m_TagString: Untagged
  m_Icon: {fileID: 0}
  m_NavMeshLayer: 0
  m_StaticEditorFlags: 0
  m_IsActive: 1
--- !u!4 &474624
Transform:
  m_ObjectHideFlags: 0
  m_CorrespondingSourceObject: {fileID: 0}
  m_PrefabInstance: {fileID: 0}
  m_PrefabAsset: {fileID: 0}
  m_GameObject: {fileID: 184430}
  m_LocalRotation: {x: 0.00000000583043, y: -0.0000000037147578, z: 0.000000024821702,
    w: 1}
  m_LocalPosition: {x: -0.00018684844, y: 2.5621476, z: 0.0000047087665}
  m_LocalScale: {x: 1, y: 1, z: 0.99999994}
  m_Children:
  - {fileID: 488618}
  m_Father: {fileID: 441212}
  m_RootOrder: 0
  m_LocalEulerAnglesHint: {x: 0, y: 0, z: 0}
--- !u!1 &187522
GameObject:
  m_ObjectHideFlags: 0
  m_CorrespondingSourceObject: {fileID: 0}
  m_PrefabInstance: {fileID: 0}
  m_PrefabAsset: {fileID: 0}
  serializedVersion: 6
  m_Component:
  - component: {fileID: 458272}
  m_Layer: 0
  m_Name: VBOT_:RightHandThumb3
  m_TagString: Untagged
  m_Icon: {fileID: 0}
  m_NavMeshLayer: 0
  m_StaticEditorFlags: 0
  m_IsActive: 1
--- !u!4 &458272
Transform:
  m_ObjectHideFlags: 0
  m_CorrespondingSourceObject: {fileID: 0}
  m_PrefabInstance: {fileID: 0}
  m_PrefabAsset: {fileID: 0}
  m_GameObject: {fileID: 187522}
  m_LocalRotation: {x: 0.000032287433, y: -0.00049903296, z: 0.011669388, w: 0.9999318}
  m_LocalPosition: {x: -0.26757833, y: 3.5406926, z: 0.000021934507}
  m_LocalScale: {x: 1, y: 0.9999996, z: 1.0000001}
  m_Children:
  - {fileID: 432512}
  m_Father: {fileID: 462714}
  m_RootOrder: 0
  m_LocalEulerAnglesHint: {x: 0, y: 0, z: 0}
--- !u!1 &189066
GameObject:
  m_ObjectHideFlags: 0
  m_CorrespondingSourceObject: {fileID: 0}
  m_PrefabInstance: {fileID: 0}
  m_PrefabAsset: {fileID: 0}
  serializedVersion: 6
  m_Component:
  - component: {fileID: 404408}
  m_Layer: 0
  m_Name: VBOT_:Spine2
  m_TagString: Untagged
  m_Icon: {fileID: 0}
  m_NavMeshLayer: 0
  m_StaticEditorFlags: 0
  m_IsActive: 1
--- !u!4 &404408
Transform:
  m_ObjectHideFlags: 0
  m_CorrespondingSourceObject: {fileID: 0}
  m_PrefabInstance: {fileID: 0}
  m_PrefabAsset: {fileID: 0}
  m_GameObject: {fileID: 189066}
  m_LocalRotation: {x: -0.000000011175873, y: 1.3353475e-18, z: -8.1315156e-20, w: 1}
  m_LocalPosition: {x: -4.7400968e-12, y: 12.938553, z: 0.00000017881393}
  m_LocalScale: {x: 1, y: 0.99999994, z: 0.99999994}
  m_Children:
  - {fileID: 445294}
  - {fileID: 480034}
  - {fileID: 456678}
  m_Father: {fileID: 404340}
  m_RootOrder: 0
  m_LocalEulerAnglesHint: {x: 0, y: 0, z: 0}
--- !u!1 &189348
GameObject:
  m_ObjectHideFlags: 0
  m_CorrespondingSourceObject: {fileID: 0}
  m_PrefabInstance: {fileID: 0}
  m_PrefabAsset: {fileID: 0}
  serializedVersion: 6
  m_Component:
  - component: {fileID: 428214}
  m_Layer: 0
  m_Name: VBOT_:RightHandPinky2
  m_TagString: Untagged
  m_Icon: {fileID: 0}
  m_NavMeshLayer: 0
  m_StaticEditorFlags: 0
  m_IsActive: 1
--- !u!4 &428214
Transform:
  m_ObjectHideFlags: 0
  m_CorrespondingSourceObject: {fileID: 0}
  m_PrefabInstance: {fileID: 0}
  m_PrefabAsset: {fileID: 0}
  m_GameObject: {fileID: 189348}
  m_LocalRotation: {x: -0.00000052158674, y: 0.0000013498303, z: 0.000034841643, w: 1}
  m_LocalPosition: {x: 0.000006397138, y: 3.5136409, z: 0.0000012964009}
  m_LocalScale: {x: 1, y: 0.9999999, z: 0.999999}
  m_Children:
  - {fileID: 441212}
  m_Father: {fileID: 483450}
  m_RootOrder: 0
  m_LocalEulerAnglesHint: {x: 0, y: 0, z: 0}
--- !u!1 &190704
GameObject:
  m_ObjectHideFlags: 0
  m_CorrespondingSourceObject: {fileID: 0}
  m_PrefabInstance: {fileID: 0}
  m_PrefabAsset: {fileID: 0}
  serializedVersion: 6
  m_Component:
  - component: {fileID: 443944}
  m_Layer: 0
  m_Name: VBOT_:LeftHand
  m_TagString: Untagged
  m_Icon: {fileID: 0}
  m_NavMeshLayer: 0
  m_StaticEditorFlags: 0
  m_IsActive: 1
--- !u!4 &443944
Transform:
  m_ObjectHideFlags: 0
  m_CorrespondingSourceObject: {fileID: 0}
  m_PrefabInstance: {fileID: 0}
  m_PrefabAsset: {fileID: 0}
  m_GameObject: {fileID: 190704}
  m_LocalRotation: {x: -0.000122516, y: -0.012010347, z: 0.057643548, w: 0.99826497}
  m_LocalPosition: {x: -0.00000031946908, y: 29.885254, z: -0.0000056620333}
  m_LocalScale: {x: 1.0000005, y: 1, z: 1.0000001}
  m_Children:
  - {fileID: 423342}
  - {fileID: 476544}
  - {fileID: 410072}
  - {fileID: 475332}
  - {fileID: 419186}
  m_Father: {fileID: 430694}
  m_RootOrder: 0
  m_LocalEulerAnglesHint: {x: 0, y: 0, z: 0}
--- !u!1 &192280
GameObject:
  m_ObjectHideFlags: 0
  m_CorrespondingSourceObject: {fileID: 0}
  m_PrefabInstance: {fileID: 0}
  m_PrefabAsset: {fileID: 0}
  serializedVersion: 6
  m_Component:
  - component: {fileID: 475332}
  m_Layer: 0
  m_Name: VBOT_:LeftHandRing1
  m_TagString: Untagged
  m_Icon: {fileID: 0}
  m_NavMeshLayer: 0
  m_StaticEditorFlags: 0
  m_IsActive: 1
--- !u!4 &475332
Transform:
  m_ObjectHideFlags: 0
  m_CorrespondingSourceObject: {fileID: 0}
  m_PrefabInstance: {fileID: 0}
  m_PrefabAsset: {fileID: 0}
  m_GameObject: {fileID: 192280}
  m_LocalRotation: {x: -0.0007830648, y: -0.003655989, z: -0.05754699, w: 0.99833584}
  m_LocalPosition: {x: -1.3299953, y: 10.050946, z: -0.0104290685}
  m_LocalScale: {x: 0.9999994, y: 1.0000001, z: 0.99999976}
  m_Children:
  - {fileID: 453074}
  m_Father: {fileID: 443944}
  m_RootOrder: 3
  m_LocalEulerAnglesHint: {x: 0, y: 0, z: 0}
--- !u!1 &193146
GameObject:
  m_ObjectHideFlags: 0
  m_CorrespondingSourceObject: {fileID: 0}
  m_PrefabInstance: {fileID: 0}
  m_PrefabAsset: {fileID: 0}
  serializedVersion: 6
  m_Component:
  - component: {fileID: 405084}
  m_Layer: 0
  m_Name: VBOT_:RightForeArm
  m_TagString: Untagged
  m_Icon: {fileID: 0}
  m_NavMeshLayer: 0
  m_StaticEditorFlags: 0
  m_IsActive: 1
--- !u!4 &405084
Transform:
  m_ObjectHideFlags: 0
  m_CorrespondingSourceObject: {fileID: 0}
  m_PrefabInstance: {fileID: 0}
  m_PrefabAsset: {fileID: 0}
  m_GameObject: {fileID: 193146}
  m_LocalRotation: {x: 0.00000016583917, y: -0.0000813696, z: -0.0000003511705, w: 1}
  m_LocalPosition: {x: 0.0000005218607, y: 28.777094, z: -0.00000024959442}
  m_LocalScale: {x: 0.9999995, y: 1.0000006, z: 1.0000001}
  m_Children:
  - {fileID: 440192}
  m_Father: {fileID: 426282}
  m_RootOrder: 0
  m_LocalEulerAnglesHint: {x: 0, y: 0, z: 0}
--- !u!1 &194146
GameObject:
  m_ObjectHideFlags: 0
  m_CorrespondingSourceObject: {fileID: 0}
  m_PrefabInstance: {fileID: 0}
  m_PrefabAsset: {fileID: 0}
  serializedVersion: 6
  m_Component:
  - component: {fileID: 494144}
  m_Layer: 0
  m_Name: VBOT_:RightHandIndex2
  m_TagString: Untagged
  m_Icon: {fileID: 0}
  m_NavMeshLayer: 0
  m_StaticEditorFlags: 0
  m_IsActive: 1
--- !u!4 &494144
Transform:
  m_ObjectHideFlags: 0
  m_CorrespondingSourceObject: {fileID: 0}
  m_PrefabInstance: {fileID: 0}
  m_PrefabAsset: {fileID: 0}
  m_GameObject: {fileID: 194146}
  m_LocalRotation: {x: -0.00000036630905, y: 0.00003379532, z: -0.00061720755, w: 0.9999998}
  m_LocalPosition: {x: -0.002191752, y: 3.5275145, z: -0.0000073621045}
  m_LocalScale: {x: 0.99999994, y: 0.99999964, z: 1.0000005}
  m_Children:
  - {fileID: 418374}
  m_Father: {fileID: 463416}
  m_RootOrder: 0
  m_LocalEulerAnglesHint: {x: 0, y: 0, z: 0}
--- !u!1 &197194
GameObject:
  m_ObjectHideFlags: 0
  m_CorrespondingSourceObject: {fileID: 0}
  m_PrefabInstance: {fileID: 0}
  m_PrefabAsset: {fileID: 0}
  serializedVersion: 6
  m_Component:
  - component: {fileID: 458094}
  m_Layer: 0
  m_Name: VBOT_:LeftHandPinky4_end
  m_TagString: Untagged
  m_Icon: {fileID: 0}
  m_NavMeshLayer: 0
  m_StaticEditorFlags: 0
  m_IsActive: 1
--- !u!4 &458094
Transform:
  m_ObjectHideFlags: 0
  m_CorrespondingSourceObject: {fileID: 0}
  m_PrefabInstance: {fileID: 0}
  m_PrefabAsset: {fileID: 0}
  m_GameObject: {fileID: 197194}
  m_LocalRotation: {x: 0, y: 0, z: 0, w: 1}
  m_LocalPosition: {x: -0, y: 2.2874296, z: 0}
  m_LocalScale: {x: 1, y: 1, z: 1}
  m_Children: []
  m_Father: {fileID: 465784}
  m_RootOrder: 0
  m_LocalEulerAnglesHint: {x: 0, y: 0, z: 0}
